// EVENT 3100
Name "Centipede Girl"

If(0,25,1)
 JumpToLabel("反省会")
 0()
EndIf()
PictureDisplay(5,"80_mukade_st02",0,0,0,0,100,100,0,0)
PictureMove(5,null,0,0,0,0,100,100,255,0,30,true)
241(bytes(0x04,0x08,0x6f,0x3a,0x0d,0x52,0x50,0x47,0x3a,0x3a,0x42,0x47,0x4d,0x08,0x3a,0x0a,0x40,0x6e,0x61,0x6d,0x65,0x49,0x22,0x09,0x65,0x72,0x6f,0x31,0x06,0x3a,0x06,0x45,0x54,0x3a,0x0c,0x40,0x76,0x6f,0x6c,0x75,0x6d,0x65,0x69,0x69,0x3a,0x0b,0x40,0x70,0x69,0x74,0x63,0x68,0x69,0x69))
ShowMessageFace("",0,0,2,1)
ShowMessage("\\n<Luka>Unnngh...")
250(bytes(0x04,0x08,0x6f,0x3a,0x0c,0x52,0x50,0x47,0x3a,0x3a,0x53,0x45,0x08,0x3a,0x0a,0x40,0x6e,0x61,0x6d,0x65,0x49,0x22,0x16,0x6d,0x6f,0x6e,0x5f,0x65,0x72,0x6f,0x5f,0x6d,0x61,0x6b,0x69,0x74,0x75,0x6b,0x69,0x33,0x06,0x3a,0x06,0x45,0x54,0x3a,0x0b,0x40,0x70,0x69,0x74,0x63,0x68,0x69,0x69,0x3a,0x0c,0x40,0x76,0x6f,0x6c,0x75,0x6d,0x65,0x69,0x69))
PictureDisplay(5,"ev_mukade_hb1",0,0,0,0,100,100,255,0)
ShowMessageFace("",0,0,2,2)
ShowMessage("Beaten, I kneel on the ground defeated.")
ShowMessage("The Centipede Girl picks me up and wraps me in her arms.")
ShowMessageFace("mukade_fc1",1,0,2,3)
ShowMessage("\\n<Centipede Girl>Well then, let's copulate...\nYou can shoot your seed straight into my womb..")
ShowMessageFace("",0,0,2,4)
ShowMessage("The Centipede Girl positions my body close to her waistline.")
ShowMessage("Between her human and centipede parts, a distinctive pink hole becomes visible.")
ShowMessageFace("",0,0,2,5)
ShowMessage("My penis is about to enter her vagina.")
ShowMessage("I tremble with fear, twisting in her constricting arms.")
ShowMessageFace("",0,0,2,6)
ShowMessage("\\n<Luka>S...Stop...!")
ShowMessageFace("mukade_fc1",1,0,2,7)
ShowMessage("\\n<Centipede Girl>My vagina has a unique structure...\nIt'll feel very, very good.")
ShowMessageFace("",0,0,2,8)
ShowMessage("I was powerless as the Centipede Girl drew me closer to her body.")
ShowMessageFace("",0,0,2,9)
ShowMessage("Once our bodies are even closer, our waists push together...")
ShowMessage("And in one fell swoop, my penis is inserted into her vagina!")
ShowMessageFace("",0,0,2,10)
ShowMessage("\\n<Luka>Aahh!!\nWhat is...?!")
245(bytes(0x04,0x08,0x6f,0x3a,0x0d,0x52,0x50,0x47,0x3a,0x3a,0x42,0x47,0x53,0x08,0x3a,0x0a,0x40,0x6e,0x61,0x6d,0x65,0x49,0x22,0x1a,0x6d,0x6f,0x6e,0x5f,0x68,0x73,0x65,0x61,0x6e,0x32,0x31,0x5f,0x74,0x65,0x6e,0x74,0x61,0x63,0x6c,0x65,0x32,0x06,0x3a,0x06,0x45,0x54,0x3a,0x0c,0x40,0x76,0x6f,0x6c,0x75,0x6d,0x65,0x69,0x55,0x3a,0x0b,0x40,0x70,0x69,0x74,0x63,0x68,0x69,0x69))
PictureDisplay(5,"ev_mukade_hb2",0,0,0,0,100,100,255,0)
PictureDisplay(6,"ev_mukade_ct03",0,0,0,0,100,100,255,0)
ShowMessageFace("",0,0,2,11)
ShowMessage("Inside the Centipede Girl's vagina, there is something like a myriad of small legs.")
ShowMessage("Each one moves very slowly, like it has a will of its own.")
ShowMessageFace("",0,0,2,12)
ShowMessage("They felt like a soft thistle of grass on my penis, not like her rough arms.")
ShowMessage("They crawl all over my penis and tickle with a sickly pleasure.")
ShowMessageFace("",0,0,2,13)
ShowMessage("\\n<Luka>Unnngh...\nThis... feels wrong...")
ShowMessageFace("mukade_fc1",1,0,2,14)
ShowMessage("\\n<Centipede Girl>Every man says that at first, but after a while...\nHo~ra, hora hora...")
ShowMessageFace("",0,0,2,15)
ShowMessage("\\n<Luka>Ooooh...!")
ShowMessageFace("",0,0,2,16)
ShowMessage("The legs in her vagina start to heavily tickle my glans...")
ShowMessage("As well as every erogenous zone on my penis.")
ShowMessageFace("mukade_fc1",1,0,2,17)
ShowMessage("\\n<Centipede Girl>No vagina can compare to mine...\nOnce a penis goes in it, the whole of my vagina works to make a man come.")
ShowMessageFace("mukade_fc1",1,0,2,18)
ShowMessage("\\n<Centipede Girl>Indulge in the pleasure and give me a child.")
ShowMessageFace("",0,0,2,19)
ShowMessage("\\n<Luka>Ah, aaaah...!!")
ShowMessageFace("",0,0,2,20)
ShowMessage("From the root to the tip, my penis is tickled ruthlessly.")
ShowMessage("It's like being caressed by thousands of countless fingers.")
ShowMessageFace("",0,0,2,21)
ShowMessage("With the dull ache in my waist, I know an ejaculation is coming.")
ShowMessage("Stuck like this, I would ejaculate right into her vagina.")
ShowMessageFace("",0,0,2,22)
ShowMessage("\\n<Luka>Unnngh...No...")
ShowMessageFace("",0,0,2,23)
ShowMessage("Even if I try to squirm, I'm locked in the prison of her arms.")
ShowMessage("As it is, I can only shoot my seed into her monster womb.")
ShowMessageFace("mukade_fc1",1,0,2,24)
ShowMessage("\\n<Centipede Girl>Are you trying to escape?\nFufufu. Not a chance.")
ShowMessageFace("",0,0,2,25)
ShowMessage("\\n<Luka>Ah, aaah...")
ShowMessageFace("",0,0,2,26)
ShowMessage("During my struggle, her vagina continues to play with my penis.")
ShowMessage("Finally, I cannot suppress the feeling of ejaculation.")
ShowMessageFace("",0,0,2,27)
ShowMessage("To this unyielding pleasure, my body gives in and my head goes white.")
RunCommonEvent(104)
PictureDisplay(5,"ev_mukade_hb3",0,0,0,0,100,100,255,0)
PictureDisplay(6,"ev_mukade_ct04",0,0,0,0,100,100,255,0)
RunCommonEvent(105)
ShowMessageFace("",0,0,2,28)
ShowMessage("\\n<Luka>Huaaa...")
ShowMessageFace("",0,0,2,29)
ShowMessage("I ejaculate full pelt into her vagina, each pulse shaking my body to the core.")
ShowMessageFace("",0,0,2,30)
ShowMessage("I feel defeat and humiliation as I come inside of her.")
ShowMessage("I shudder with shame and misery at what I've done.")
ShowMessageFace("mukade_fc1",1,0,2,31)
ShowMessage("\\n<Centipede Girl>Fufufu... How was my insect vagina?\nThis is pleasure a human vagina could never bring.")
ShowMessageFace("mukade_fc1",1,0,2,32)
ShowMessage("\\n<Centipede Girl>More... I want to have more of your babies.")
ShowMessageFace("",0,0,2,33)
ShowMessage("\\n<Luka>Aaah...")
ShowMessageFace("",0,0,2,34)
ShowMessage("More of her meaty fingers start to rub against my penis.")
ShowMessage("Sensitive after my ejaculation, this pleasure is mind-blowing.")
ShowMessageFace("",0,0,2,35)
ShowMessage("It's beyond my ability to resist.")
ShowMessage("In fact, no man alive could withstand this assault.")
ShowMessageFace("",0,0,2,36)
ShowMessage("The Centipede Girl's reproductive organ is strange but the pleasure was immense, beyond belief.")
ShowMessageFace("",0,0,2,37)
ShowMessage("\\n<Luka>Ah, unnngh...! Hnnngh...!")
ShowMessageFace("",0,0,2,38)
ShowMessage("Pleasure courses through me, making my body jump and twitch.")
ShowMessage("The Centipede Girl smiles at my trembling form.")
ShowMessageFace("mukade_fc1",1,0,2,39)
ShowMessage("\\n<Centipede Girl>Fufufu... What a miserable figure.\nYou look like you're in pain for having sex with me.")
245(bytes(0x04,0x08,0x6f,0x3a,0x0d,0x52,0x50,0x47,0x3a,0x3a,0x42,0x47,0x53,0x08,0x3a,0x0a,0x40,0x6e,0x61,0x6d,0x65,0x49,0x22,0x1a,0x6d,0x6f,0x6e,0x5f,0x68,0x73,0x65,0x61,0x6e,0x32,0x32,0x5f,0x74,0x65,0x6e,0x74,0x61,0x63,0x6c,0x65,0x33,0x06,0x3a,0x06,0x45,0x54,0x3a,0x0c,0x40,0x76,0x6f,0x6c,0x75,0x6d,0x65,0x69,0x55,0x3a,0x0b,0x40,0x70,0x69,0x74,0x63,0x68,0x69,0x69))
ShowMessageFace("",0,0,2,40)
ShowMessage("Suddenly, the movement of the fingers in her vagina grow even more intense.")
ShowMessageFace("",0,0,2,41)
ShowMessage("Creeping along my shaft, flicking my tip.")
ShowMessage("Sweeping all over like a broom and washing me like a mop.")
ShowMessageFace("",0,0,2,42)
ShowMessage("To this relentless and extraordinary onslaught, my penis pulses.")
RunCommonEvent(104)
PictureDisplay(5,"ev_mukade_hb4",0,0,0,0,100,100,255,0)
PictureDisplay(6,"ev_mukade_ct05",0,0,0,0,100,100,255,0)
RunCommonEvent(105)
ShowMessageFace("",0,0,2,43)
ShowMessage("\\n<Luka>Unnngh...")
ShowMessageFace("",0,0,2,44)
ShowMessage("Reveling in the sweet pleasure, I give in to the ecstasy.")
ShowMessage("I am completely addicted to the inhuman pleasure of this vagina.")
ShowMessageFace("mukade_fc1",1,0,2,45)
ShowMessage("\\n<Centipede Girl>It seems you've finally given in.\nWell then, let me reward you...")
ShowMessageFace("",0,0,2,46)
ShowMessage("Smiling with victory, her vagina continues to pleasure me senseless.")
ShowMessage("Accepting it, I drown in the bliss of her mating.")
ShowMessageFace("",0,0,2,47)
ShowMessage("At first it felt disgusting, but now it is a heavenly paradise.")
ShowMessageFace("",0,0,2,48)
ShowMessage("\\n<Luka>Ah, aaah...")
RunCommonEvent(104)
PictureDisplay(6,"ev_mukade_ct06",0,0,0,0,100,100,255,0)
RunCommonEvent(105)
ShowMessageFace("",0,0,2,49)
ShowMessage("Yet again, I shoot more semen into her womb.")
ShowMessage("I soak in the satisfaction of a man as I impregnate her further.")
ShowMessageFace("mukade_fc1",1,0,2,50)
ShowMessage("\\n<Centipede Girl>Hora... Come some more...\nI will enjoy mating with you for a lo~ng time.")
ShowMessageFace("",0,0,2,51)
ShowMessage("\\n<Luka>Huaaa...")
RunCommonEvent(104)
RunCommonEvent(105)
221()
PictureClear(5)
PictureClear(6)
246(2)
ShowMessageFace("",0,0,2,52)
ShowMessage("This was how I ended up as the Centipede Girl's mating slave.")
ShowMessage("She continues to rape me every day for my semen.")
ShowMessageFace("",0,0,2,53)
ShowMessage("I am completely and utterly addicted to her reproductive organ.")
ShowMessage("Forever to stick my penis into that baby maker of hers.")
ShowMessageFace("",0,0,2,54)
ShowMessage("Thus, my adventure has ended.")
DefineLabel("反省会")
ShowMessageFace("",0,0,2,55)
ShowMessage("......")
221()
242(1)
Wait(120)
355("memory_interruption")
ShowMessageFace("",0,0,2,56)
ShowMessage("You hear Ilias' voice calling out to you...")
ShowMessage("Receive her evaluation?")
ShowChoices(strings("Receive evaluation","Change difficulty","Reincarnate"),3)
IfPlayerPicksChoice(0,null)
 241(bytes(0x04,0x08,0x6f,0x3a,0x0d,0x52,0x50,0x47,0x3a,0x3a,0x42,0x47,0x4d,0x08,0x3a,0x0a,0x40,0x6e,0x61,0x6d,0x65,0x49,0x22,0x0a,0x69,0x72,0x69,0x61,0x73,0x06,0x3a,0x06,0x45,0x54,0x3a,0x0c,0x40,0x76,0x6f,0x6c,0x75,0x6d,0x65,0x69,0x5f,0x3a,0x0b,0x40,0x70,0x69,0x74,0x63,0x68,0x69,0x6e))
 PictureDisplay(1,"bg001",0,0,0,0,100,100,255,0)
 222()
 PictureDisplay(5,"80_iriasu_st04",0,0,0,0,100,100,0,0)
 PictureMove(5,null,0,0,0,0,100,100,255,0,30,true)
 ShowMessageFace("iriasu_fc1",3,0,2,57)
 ShowMessage("\\n<Ilias>It is said that centipedes suck out every single type of body fluid.\nTell me, do they taste delicious to you?")
 PictureDisplay(5,"80_iriasu_st01",0,0,0,0,100,100,255,0)
 ShowMessageFace("iriasu_fc1",0,0,2,58)
 ShowMessage("\\n<Ilias>The Centipede Girl is a difficult enemy with high attack and defense power.\nShe has no unusual attacks, but her attack power is high.")
 ShowMessageFace("iriasu_fc1",0,0,2,59)
 ShowMessage("\\n<Ilias>Her defensive power is great due to her insect nature.\nWith no weak points, it will be difficult to damage her.")
 ShowMessageFace("iriasu_fc1",0,0,2,60)
 ShowMessage("\\n<Ilias>But because she's an insect, she is weak against status ailments.\nInflicting her with blind will give you an advantage.")
 PictureDisplay(5,"80_iriasu_st02",0,0,0,0,100,100,255,0)
 ShowMessageFace("iriasu_fc1",1,0,2,61)
 ShowMessage("\\n<Ilias>Now go, oh Brave Luka.\nStrike down the hated centipede.")
 242(1)
 221()
 PictureClear(5)
 PictureClear(1)
 Wait(60)
 0()
IfPlayerPicksChoice(1,null)
 ShowMessageFace("",0,0,2,62)
 ShowMessage("Please choose a difficulty level.")
 RunCommonEvent(110)
 0()
IfPlayerPicksChoice(2,null)
 0()
404()
RunCommonEvent(3000)
0()
