// EVENT 2069
Name "Seduction: Anteater Girl"

If(0,25,1)
 EndEventProcessing()
 0()
EndIf()
355("$game_troop.lose_event_id = 3069")
ChangeVariable(26,26,0,3,3,1,4)
ChangeVariable(26,26,4,0,10)
ShowMessageFace("arikui_fc1",2,0,2,1)
ShowMessage("\\n<Anteater Girl>I'm going to lose~!")
ShowMessageFace("arikui_fc1",0,0,2,2)
ShowMessage("\\n<Anteater Girl>Oh well... You can violate me. ♪")
ShowMessageFace("",0,0,2,3)
ShowMessage("Showing her submission, the Anteater Girl shows off her exposed lower body.")
ChangeSwitch(98,98,0)
ChangeSwitch(96,96,0)
ShowChoices(strings("Ignore her","Give in to temptation"),1)
IfPlayerPicksChoice(0,"Ignore her")
 ShowMessageFace("",0,0,2,4)
 ShowMessage("Luka resists her temptation!")
 RunCommonEvent(1999)
 EndEventProcessing()
 0()
IfPlayerPicksChoice(1,"誘惑に乗る")
 0()
404()
ShowMessageFace("arikui_fc1",1,0,2,5)
ShowMessage("\\n<Anteater Girl>Ehehe, you want to put it in?\nOkay... Come here. ♪")
ShowMessageFace("",0,0,2,6)
ShowMessage("\\n<Luka>Aaah...")
ShowMessageFace("",0,0,2,7)
ShowMessage("Invited, Luka moves over and forces himself into her!")
ChangeVariable(26,26,3,0,4)
250(bytes(0x04,0x08,0x6f,0x3a,0x0c,0x52,0x50,0x47,0x3a,0x3a,0x53,0x45,0x08,0x3a,0x0a,0x40,0x6e,0x61,0x6d,0x65,0x49,0x22,0x11,0x6d,0x6f,0x6e,0x5f,0x65,0x72,0x6f,0x5f,0x70,0x79,0x75,0x31,0x06,0x3a,0x06,0x45,0x54,0x3a,0x0b,0x40,0x70,0x69,0x74,0x63,0x68,0x69,0x69,0x3a,0x0c,0x40,0x76,0x6f,0x6c,0x75,0x6d,0x65,0x69,0x69))
311(0,1,1,1,26,true)
ShowMessageFace("",0,0,2,8)
ShowMessage("Luka's penis sinks into the Anteater Girl!")
ShowMessage("Her soft flesh wraps around him!\\D")
ShowMessage("Luka takes \\V[26] damage!")
ChangeVariable(27,27,0,3,3,1,2)
If(1,27,0,0,0)
 JumpToLabel("射精1")
 0()
EndIf()
ShowMessageFace("",0,0,2,9)
ShowMessage("\\n<Luka>A-Amazing...\nIt's like there are tongues inside...")
ShowMessageFace("arikui_fc1",1,0,2,10)
ShowMessage("\\n<Anteater Girl>Ahaha, you put it in~♪\nIt's time for my counterattack!")
250(bytes(0x04,0x08,0x6f,0x3a,0x0c,0x52,0x50,0x47,0x3a,0x3a,0x53,0x45,0x08,0x3a,0x0a,0x40,0x6e,0x61,0x6d,0x65,0x49,0x22,0x12,0x6d,0x6f,0x6e,0x5f,0x65,0x72,0x6f,0x5f,0x6e,0x61,0x6d,0x65,0x32,0x06,0x3a,0x06,0x45,0x54,0x3a,0x0b,0x40,0x70,0x69,0x74,0x63,0x68,0x69,0x69,0x3a,0x0c,0x40,0x76,0x6f,0x6c,0x75,0x6d,0x65,0x69,0x69))
311(0,1,1,1,26,true)
ShowMessageFace("",0,0,2,11)
ShowMessage("The Anteater Girl's soft flesh rubs against Luka's penis!")
ShowMessage("It's like he's being licked by countless tongues!\\D")
ShowMessage("Luka takes \\V[26] damage!")
ChangeVariable(27,27,0,3,3,1,2)
If(1,27,0,0,0)
 JumpToLabel("射精2")
 0()
EndIf()
ShowMessageFace("arikui_fc1",1,0,2,12)
ShowMessage("\\n<Anteater Girl>Once you stick your dick into a monster, you can't win.\nYou're an idiot~♪")
250(bytes(0x04,0x08,0x6f,0x3a,0x0c,0x52,0x50,0x47,0x3a,0x3a,0x53,0x45,0x08,0x3a,0x0a,0x40,0x6e,0x61,0x6d,0x65,0x49,0x22,0x12,0x6d,0x6f,0x6e,0x5f,0x65,0x72,0x6f,0x5f,0x6e,0x61,0x6d,0x65,0x32,0x06,0x3a,0x06,0x45,0x54,0x3a,0x0b,0x40,0x70,0x69,0x74,0x63,0x68,0x69,0x69,0x3a,0x0c,0x40,0x76,0x6f,0x6c,0x75,0x6d,0x65,0x69,0x69))
311(0,1,1,1,26,true)
ShowMessageFace("",0,0,2,13)
ShowMessage("The Anteater Girl's vagina licks Luka's penis!")
ShowMessage("The sweet stimulation forces pleasure into Luka!\\D")
ShowMessage("Luka takes \\V[26] damage!")
ChangeVariable(27,27,0,3,3,1,2)
If(1,27,0,0,0)
 JumpToLabel("射精2")
 0()
EndIf()
DefineLabel("射精1")
ShowMessageFace("",0,0,2,14)
ShowMessage("\\n<Luka>Aah...! Am-Amazing...!")
RunCommonEvent(104)
RunCommonEvent(105)
ShowMessageFace("",0,0,2,15)
ShowMessage("The moment I stick it into her, I come.")
ShowMessage("Far too quickly, my semen is gushing into her.")
ShowMessageFace("arikui_fc1",1,0,2,16)
ShowMessage("\\n<Anteater Girl>Aree, already?\nHow sad~♪")
RunCommonEvent(2000)
EndEventProcessing()
DefineLabel("射精2")
ShowMessageFace("",0,0,2,17)
ShowMessage("\\n<Luka>A-Amazing... I'm coming...")
RunCommonEvent(104)
RunCommonEvent(105)
ShowMessageFace("",0,0,2,18)
ShowMessage("Tasting the tongue-like stimulation, I finally come.")
ShowMessage("My semen pours into the Anteater Girl's vagina.")
ShowMessageFace("arikui_fc1",1,0,2,19)
ShowMessage("\\n<Anteater Girl>Ahaha, you came in no time at all. ♪\nHow sad~♪")
RunCommonEvent(2000)
EndEventProcessing()
0()
