// EVENT 7364
Name "Shoki: Victory"

PictureDisplay(5,"80_mob_ninzya1_st01",0,0,0,0,100,100,255,0)
PictureClear(6)
ShowMessageFace("mob_ninzya1_fc1",0,0,2,1)
ShowMessage("\\n<Shoki>How did you endure all my moves?")
ShowMessage("I can't believe I was defeated.")
250(bytes(0x04,0x08,0x6f,0x3a,0x0c,0x52,0x50,0x47,0x3a,0x3a,0x53,0x45,0x08,0x3a,0x0a,0x40,0x6e,0x61,0x6d,0x65,0x49,0x22,0x0d,0x6d,0x6f,0x6e,0x5f,0x6c,0x76,0x75,0x70,0x06,0x3a,0x06,0x45,0x54,0x3a,0x0b,0x40,0x70,0x69,0x74,0x63,0x68,0x69,0x69,0x3a,0x0c,0x40,0x76,0x6f,0x6c,0x75,0x6d,0x65,0x69,0x69))
ChangeSwitch(98,98,1)
ChangeSwitch(96,96,1)
ShowMessageFace("",0,0,2,2)
ShowMessage("Luka won the Battle Fuck!")
If(1,837,0,2,1)
 ShowMessageFace("mob_ninzya1_fc1",0,0,2,3)
 ShowMessage("\\n<Shoki>You already won my treasure...\nThink you'll get anything else?")
 0()
Else()
 ShowMessageFace("mob_ninzya1_fc1",0,0,2,4)
 ShowMessage("\\n<Shoki>Well... whatever, I guess the treasure of the Assassin Clan is yours...")
 ShowMessage("It's an accessory that halves the SP consumption when using a skill.")
 250(bytes(0x04,0x08,0x6f,0x3a,0x0c,0x52,0x50,0x47,0x3a,0x3a,0x53,0x45,0x08,0x3a,0x0a,0x40,0x6e,0x61,0x6d,0x65,0x49,0x22,0x0a,0x49,0x74,0x65,0x6d,0x31,0x06,0x3a,0x06,0x45,0x54,0x3a,0x0b,0x40,0x70,0x69,0x74,0x63,0x68,0x69,0x69,0x3a,0x0c,0x40,0x76,0x6f,0x6c,0x75,0x6d,0x65,0x69,0x55))
 ChangeInventoryArmor(1097,0,0,1,false)
 ChangeVariable(837,837,0,0,2)
 RunCommonEvent(6999)
 0()
EndIf()
ShowMessageFace("mob_ninzya1_fc1",0,0,2,5)
ShowMessage("\\n<Shoki>Well then, I want a rematch soon.\nI'll make you come all over my chest!")
If(0,2331,1)
 PictureClear(5)
 281(1)
 TeleportPlayer(0,41,46,22,2,0)
 216(0)
 0()
EndIf()
EndEventProcessing()
0()
