﻿
DisplayName "Magical Academy 1F"



EVENT   1
 PAGE   1
  250(bytes(0x04,0x08,0x6f,0x3a,0x0c,0x52,0x50,0x47,0x3a,0x3a,0x53,0x45,0x08,0x3a,0x0a,0x40,0x6e,0x61,0x6d,0x65,0x49,0x22,0x09,0x4d,0x6f,0x76,0x65,0x06,0x3a,0x06,0x45,0x54,0x3a,0x0b,0x40,0x70,0x69,0x74,0x63,0x68,0x69,0x69,0x3a,0x0c,0x40,0x76,0x6f,0x6c,0x75,0x6d,0x65,0x69,0x55))
  TeleportPlayer(0,282,4,15,0,0)
  0()



EVENT   2
 PAGE   1
  250(bytes(0x04,0x08,0x6f,0x3a,0x0c,0x52,0x50,0x47,0x3a,0x3a,0x53,0x45,0x08,0x3a,0x0a,0x40,0x6e,0x61,0x6d,0x65,0x49,0x22,0x09,0x4d,0x6f,0x76,0x65,0x06,0x3a,0x06,0x45,0x54,0x3a,0x0b,0x40,0x70,0x69,0x74,0x63,0x68,0x69,0x69,0x3a,0x0c,0x40,0x76,0x6f,0x6c,0x75,0x6d,0x65,0x69,0x55))
  TeleportPlayer(0,282,5,15,0,0)
  0()



EVENT   3
 PAGE   1
  ChangeSwitch(31,31,1)
  ChangeSwitch(32,32,1)
  250(bytes(0x04,0x08,0x6f,0x3a,0x0c,0x52,0x50,0x47,0x3a,0x3a,0x53,0x45,0x08,0x3a,0x0a,0x40,0x6e,0x61,0x6d,0x65,0x49,0x22,0x09,0x4d,0x6f,0x76,0x65,0x06,0x3a,0x06,0x45,0x54,0x3a,0x0b,0x40,0x70,0x69,0x74,0x63,0x68,0x69,0x69,0x3a,0x0c,0x40,0x76,0x6f,0x6c,0x75,0x6d,0x65,0x69,0x55))
  TeleportPlayer(0,282,45,15,0,0)
  0()



EVENT   4
 PAGE   1
  ChangeSwitch(31,31,1)
  ChangeSwitch(32,32,1)
  250(bytes(0x04,0x08,0x6f,0x3a,0x0c,0x52,0x50,0x47,0x3a,0x3a,0x53,0x45,0x08,0x3a,0x0a,0x40,0x6e,0x61,0x6d,0x65,0x49,0x22,0x09,0x4d,0x6f,0x76,0x65,0x06,0x3a,0x06,0x45,0x54,0x3a,0x0b,0x40,0x70,0x69,0x74,0x63,0x68,0x69,0x69,0x3a,0x0c,0x40,0x76,0x6f,0x6c,0x75,0x6d,0x65,0x69,0x55))
  TeleportPlayer(0,282,46,15,0,0)
  0()



EVENT   5
 PAGE   1
  ChangeSwitch(100,100,1)
  250(bytes(0x04,0x08,0x6f,0x3a,0x0c,0x52,0x50,0x47,0x3a,0x3a,0x53,0x45,0x08,0x3a,0x0a,0x40,0x6e,0x61,0x6d,0x65,0x49,0x22,0x09,0x4d,0x6f,0x76,0x65,0x06,0x3a,0x06,0x45,0x54,0x3a,0x0b,0x40,0x70,0x69,0x74,0x63,0x68,0x69,0x69,0x3a,0x0c,0x40,0x76,0x6f,0x6c,0x75,0x6d,0x65,0x69,0x55))
  TeleportPlayer(0,2,323,173,0,0)
  0()



EVENT   6
 PAGE   1
  ChangeSwitch(100,100,1)
  250(bytes(0x04,0x08,0x6f,0x3a,0x0c,0x52,0x50,0x47,0x3a,0x3a,0x53,0x45,0x08,0x3a,0x0a,0x40,0x6e,0x61,0x6d,0x65,0x49,0x22,0x09,0x4d,0x6f,0x76,0x65,0x06,0x3a,0x06,0x45,0x54,0x3a,0x0b,0x40,0x70,0x69,0x74,0x63,0x68,0x69,0x69,0x3a,0x0c,0x40,0x76,0x6f,0x6c,0x75,0x6d,0x65,0x69,0x55))
  TeleportPlayer(0,2,323,173,0,0)
  0()



EVENT   7
 PAGE   1
  ChangeSwitch(100,100,1)
  250(bytes(0x04,0x08,0x6f,0x3a,0x0c,0x52,0x50,0x47,0x3a,0x3a,0x53,0x45,0x08,0x3a,0x0a,0x40,0x6e,0x61,0x6d,0x65,0x49,0x22,0x09,0x4d,0x6f,0x76,0x65,0x06,0x3a,0x06,0x45,0x54,0x3a,0x0b,0x40,0x70,0x69,0x74,0x63,0x68,0x69,0x69,0x3a,0x0c,0x40,0x76,0x6f,0x6c,0x75,0x6d,0x65,0x69,0x55))
  TeleportPlayer(0,2,323,173,0,0)
  0()



EVENT   8
 PAGE   1
  250(bytes(0x04,0x08,0x6f,0x3a,0x0c,0x52,0x50,0x47,0x3a,0x3a,0x53,0x45,0x08,0x3a,0x0a,0x40,0x6e,0x61,0x6d,0x65,0x49,0x22,0x0a,0x43,0x68,0x65,0x73,0x74,0x06,0x3a,0x06,0x45,0x54,0x3a,0x0b,0x40,0x70,0x69,0x74,0x63,0x68,0x69,0x69,0x3a,0x0c,0x40,0x76,0x6f,0x6c,0x75,0x6d,0x65,0x69,0x55))
  205(0,bytes(0x04,0x08,0x6f,0x3a,0x13,0x52,0x50,0x47,0x3a,0x3a,0x4d,0x6f,0x76,0x65,0x52,0x6f,0x75,0x74,0x65,0x09,0x3a,0x0c,0x40,0x72,0x65,0x70,0x65,0x61,0x74,0x46,0x3a,0x0f,0x40,0x73,0x6b,0x69,0x70,0x70,0x61,0x62,0x6c,0x65,0x46,0x3a,0x0a,0x40,0x77,0x61,0x69,0x74,0x54,0x3a,0x0a,0x40,0x6c,0x69,0x73,0x74,0x5b,0x0b,0x6f,0x3a,0x15,0x52,0x50,0x47,0x3a,0x3a,0x4d,0x6f,0x76,0x65,0x43,0x6f,0x6d,0x6d,0x61,0x6e,0x64,0x07,0x3a,0x0a,0x40,0x63,0x6f,0x64,0x65,0x69,0x29,0x3a,0x10,0x40,0x70,0x61,0x72,0x61,0x6d,0x65,0x74,0x65,0x72,0x73,0x5b,0x00,0x6f,0x3b,0x0a,0x07,0x3b,0x0b,0x69,0x16,0x3b,0x0c,0x5b,0x00,0x6f,0x3b,0x0a,0x07,0x3b,0x0b,0x69,0x14,0x3b,0x0c,0x5b,0x06,0x69,0x08,0x6f,0x3b,0x0a,0x07,0x3b,0x0b,0x69,0x17,0x3b,0x0c,0x5b,0x00,0x6f,0x3b,0x0a,0x07,0x3b,0x0b,0x69,0x14,0x3b,0x0c,0x5b,0x06,0x69,0x08,0x6f,0x3b,0x0a,0x07,0x3b,0x0b,0x69,0x00,0x3b,0x0c,0x5b,0x00))
  ChangeSelfSwitch("A",0)
  ChangeInventory_Item(28,0,0,1)
  0()
 PAGE   2
  // condition: self-switch A is ON
  0()



EVENT   9
 PAGE   1
  250(bytes(0x04,0x08,0x6f,0x3a,0x0c,0x52,0x50,0x47,0x3a,0x3a,0x53,0x45,0x08,0x3a,0x0a,0x40,0x6e,0x61,0x6d,0x65,0x49,0x22,0x0a,0x43,0x68,0x65,0x73,0x74,0x06,0x3a,0x06,0x45,0x54,0x3a,0x0b,0x40,0x70,0x69,0x74,0x63,0x68,0x69,0x69,0x3a,0x0c,0x40,0x76,0x6f,0x6c,0x75,0x6d,0x65,0x69,0x55))
  205(0,bytes(0x04,0x08,0x6f,0x3a,0x13,0x52,0x50,0x47,0x3a,0x3a,0x4d,0x6f,0x76,0x65,0x52,0x6f,0x75,0x74,0x65,0x09,0x3a,0x0c,0x40,0x72,0x65,0x70,0x65,0x61,0x74,0x46,0x3a,0x0f,0x40,0x73,0x6b,0x69,0x70,0x70,0x61,0x62,0x6c,0x65,0x46,0x3a,0x0a,0x40,0x77,0x61,0x69,0x74,0x54,0x3a,0x0a,0x40,0x6c,0x69,0x73,0x74,0x5b,0x0b,0x6f,0x3a,0x15,0x52,0x50,0x47,0x3a,0x3a,0x4d,0x6f,0x76,0x65,0x43,0x6f,0x6d,0x6d,0x61,0x6e,0x64,0x07,0x3a,0x0a,0x40,0x63,0x6f,0x64,0x65,0x69,0x29,0x3a,0x10,0x40,0x70,0x61,0x72,0x61,0x6d,0x65,0x74,0x65,0x72,0x73,0x5b,0x00,0x6f,0x3b,0x0a,0x07,0x3b,0x0b,0x69,0x16,0x3b,0x0c,0x5b,0x00,0x6f,0x3b,0x0a,0x07,0x3b,0x0b,0x69,0x14,0x3b,0x0c,0x5b,0x06,0x69,0x08,0x6f,0x3b,0x0a,0x07,0x3b,0x0b,0x69,0x17,0x3b,0x0c,0x5b,0x00,0x6f,0x3b,0x0a,0x07,0x3b,0x0b,0x69,0x14,0x3b,0x0c,0x5b,0x06,0x69,0x08,0x6f,0x3b,0x0a,0x07,0x3b,0x0b,0x69,0x00,0x3b,0x0c,0x5b,0x00))
  ChangeSelfSwitch("A",0)
  ChangeInventoryWeapon(420,0,0,1,false)
  0()
 PAGE   2
  // condition: self-switch A is ON
  0()



EVENT   10
 PAGE   1
  250(bytes(0x04,0x08,0x6f,0x3a,0x0c,0x52,0x50,0x47,0x3a,0x3a,0x53,0x45,0x08,0x3a,0x0a,0x40,0x6e,0x61,0x6d,0x65,0x49,0x22,0x0a,0x43,0x68,0x65,0x73,0x74,0x06,0x3a,0x06,0x45,0x54,0x3a,0x0b,0x40,0x70,0x69,0x74,0x63,0x68,0x69,0x69,0x3a,0x0c,0x40,0x76,0x6f,0x6c,0x75,0x6d,0x65,0x69,0x55))
  205(0,bytes(0x04,0x08,0x6f,0x3a,0x13,0x52,0x50,0x47,0x3a,0x3a,0x4d,0x6f,0x76,0x65,0x52,0x6f,0x75,0x74,0x65,0x09,0x3a,0x0c,0x40,0x72,0x65,0x70,0x65,0x61,0x74,0x46,0x3a,0x0f,0x40,0x73,0x6b,0x69,0x70,0x70,0x61,0x62,0x6c,0x65,0x46,0x3a,0x0a,0x40,0x77,0x61,0x69,0x74,0x54,0x3a,0x0a,0x40,0x6c,0x69,0x73,0x74,0x5b,0x0b,0x6f,0x3a,0x15,0x52,0x50,0x47,0x3a,0x3a,0x4d,0x6f,0x76,0x65,0x43,0x6f,0x6d,0x6d,0x61,0x6e,0x64,0x07,0x3a,0x0a,0x40,0x63,0x6f,0x64,0x65,0x69,0x29,0x3a,0x10,0x40,0x70,0x61,0x72,0x61,0x6d,0x65,0x74,0x65,0x72,0x73,0x5b,0x00,0x6f,0x3b,0x0a,0x07,0x3b,0x0b,0x69,0x16,0x3b,0x0c,0x5b,0x00,0x6f,0x3b,0x0a,0x07,0x3b,0x0b,0x69,0x14,0x3b,0x0c,0x5b,0x06,0x69,0x08,0x6f,0x3b,0x0a,0x07,0x3b,0x0b,0x69,0x17,0x3b,0x0c,0x5b,0x00,0x6f,0x3b,0x0a,0x07,0x3b,0x0b,0x69,0x14,0x3b,0x0c,0x5b,0x06,0x69,0x08,0x6f,0x3b,0x0a,0x07,0x3b,0x0b,0x69,0x00,0x3b,0x0c,0x5b,0x00))
  ChangeSelfSwitch("A",0)
  ChangeInventory_Item(109,0,0,1)
  0()
 PAGE   2
  // condition: self-switch A is ON
  0()



EVENT   11
 PAGE   1
  250(bytes(0x04,0x08,0x6f,0x3a,0x0c,0x52,0x50,0x47,0x3a,0x3a,0x53,0x45,0x08,0x3a,0x0a,0x40,0x6e,0x61,0x6d,0x65,0x49,0x22,0x0a,0x43,0x68,0x65,0x73,0x74,0x06,0x3a,0x06,0x45,0x54,0x3a,0x0b,0x40,0x70,0x69,0x74,0x63,0x68,0x69,0x69,0x3a,0x0c,0x40,0x76,0x6f,0x6c,0x75,0x6d,0x65,0x69,0x55))
  205(0,bytes(0x04,0x08,0x6f,0x3a,0x13,0x52,0x50,0x47,0x3a,0x3a,0x4d,0x6f,0x76,0x65,0x52,0x6f,0x75,0x74,0x65,0x09,0x3a,0x0c,0x40,0x72,0x65,0x70,0x65,0x61,0x74,0x46,0x3a,0x0f,0x40,0x73,0x6b,0x69,0x70,0x70,0x61,0x62,0x6c,0x65,0x46,0x3a,0x0a,0x40,0x77,0x61,0x69,0x74,0x54,0x3a,0x0a,0x40,0x6c,0x69,0x73,0x74,0x5b,0x0b,0x6f,0x3a,0x15,0x52,0x50,0x47,0x3a,0x3a,0x4d,0x6f,0x76,0x65,0x43,0x6f,0x6d,0x6d,0x61,0x6e,0x64,0x07,0x3a,0x0a,0x40,0x63,0x6f,0x64,0x65,0x69,0x29,0x3a,0x10,0x40,0x70,0x61,0x72,0x61,0x6d,0x65,0x74,0x65,0x72,0x73,0x5b,0x00,0x6f,0x3b,0x0a,0x07,0x3b,0x0b,0x69,0x16,0x3b,0x0c,0x5b,0x00,0x6f,0x3b,0x0a,0x07,0x3b,0x0b,0x69,0x14,0x3b,0x0c,0x5b,0x06,0x69,0x08,0x6f,0x3b,0x0a,0x07,0x3b,0x0b,0x69,0x17,0x3b,0x0c,0x5b,0x00,0x6f,0x3b,0x0a,0x07,0x3b,0x0b,0x69,0x14,0x3b,0x0c,0x5b,0x06,0x69,0x08,0x6f,0x3b,0x0a,0x07,0x3b,0x0b,0x69,0x00,0x3b,0x0c,0x5b,0x00))
  ChangeSelfSwitch("A",0)
  ChangeInventory_Item(208,0,0,1)
  0()
 PAGE   2
  // condition: self-switch A is ON
  0()



EVENT   12
 PAGE   1
  250(bytes(0x04,0x08,0x6f,0x3a,0x0c,0x52,0x50,0x47,0x3a,0x3a,0x53,0x45,0x08,0x3a,0x0a,0x40,0x6e,0x61,0x6d,0x65,0x49,0x22,0x0a,0x43,0x68,0x65,0x73,0x74,0x06,0x3a,0x06,0x45,0x54,0x3a,0x0b,0x40,0x70,0x69,0x74,0x63,0x68,0x69,0x69,0x3a,0x0c,0x40,0x76,0x6f,0x6c,0x75,0x6d,0x65,0x69,0x55))
  205(0,bytes(0x04,0x08,0x6f,0x3a,0x13,0x52,0x50,0x47,0x3a,0x3a,0x4d,0x6f,0x76,0x65,0x52,0x6f,0x75,0x74,0x65,0x09,0x3a,0x0c,0x40,0x72,0x65,0x70,0x65,0x61,0x74,0x46,0x3a,0x0f,0x40,0x73,0x6b,0x69,0x70,0x70,0x61,0x62,0x6c,0x65,0x46,0x3a,0x0a,0x40,0x77,0x61,0x69,0x74,0x54,0x3a,0x0a,0x40,0x6c,0x69,0x73,0x74,0x5b,0x0b,0x6f,0x3a,0x15,0x52,0x50,0x47,0x3a,0x3a,0x4d,0x6f,0x76,0x65,0x43,0x6f,0x6d,0x6d,0x61,0x6e,0x64,0x07,0x3a,0x0a,0x40,0x63,0x6f,0x64,0x65,0x69,0x29,0x3a,0x10,0x40,0x70,0x61,0x72,0x61,0x6d,0x65,0x74,0x65,0x72,0x73,0x5b,0x00,0x6f,0x3b,0x0a,0x07,0x3b,0x0b,0x69,0x16,0x3b,0x0c,0x5b,0x00,0x6f,0x3b,0x0a,0x07,0x3b,0x0b,0x69,0x14,0x3b,0x0c,0x5b,0x06,0x69,0x08,0x6f,0x3b,0x0a,0x07,0x3b,0x0b,0x69,0x17,0x3b,0x0c,0x5b,0x00,0x6f,0x3b,0x0a,0x07,0x3b,0x0b,0x69,0x14,0x3b,0x0c,0x5b,0x06,0x69,0x08,0x6f,0x3b,0x0a,0x07,0x3b,0x0b,0x69,0x00,0x3b,0x0c,0x5b,0x00))
  ChangeSelfSwitch("A",0)
  ChangeInventory_Item(207,0,0,1)
  0()
 PAGE   2
  // condition: self-switch A is ON
  0()



EVENT   13
 PAGE   1
  If(0,4,0)
   ShowMessageFace("alice_fc5",0,0,2,1)
   ShowMessage("\\n<Alice>This must be the Magical Academy.\nI definitely sense the presence of mages everywhere.")
   ShowMessageFace("alice_fc5",2,0,2,2)
   ShowMessage("\\n<Alice>They're only students, but don't let your guard down. Considering they're Mephisto's pupils, they're likely powerful.")
   0()
  EndIf()
  If(0,5,0)
   ShowMessageFace("iriasu_fc4",7,0,2,3)
   ShowMessage("\\n<Ilias>This must be the Magical Academy.\nIt looks like there are students of magic wandering all over the place.")
   ShowMessageFace("iriasu_fc4",7,0,2,4)
   ShowMessage("\\n<Ilias>Even though our enemies are students, do not relax your guard. They have all learned some magic, at least.")
   0()
  EndIf()
  If(4,167,0)
   ShowMessageFace("lusia_fc1",0,0,2,5)
   ShowMessage("\\n<Lucia>Despite being students, disciples of that magical advisor should definitely not be underestimated.")
   0()
  EndIf()
  If(4,134,0)
   ShowMessageFace("chrom_fc2",0,0,2,6)
   ShowMessage("\\n<Chrome>I always wanted to go to school...\n...kind of, sort of.")
   0()
  EndIf()
  If(0,6,0)
   ShowMessageFace("sonia_fc2",2,0,2,7)
   ShowMessage("\\n<Sonya>We're supposed to investigate, but where should we go?")
   0()
  EndIf()
  ShowMessageFace("ruka_fc1",0,0,2,8)
  ShowMessage("\\n<Luka>Any evidence of a crime would probably be in Mephisto's room. Let's go find that!")
  205(18,bytes(0x04,0x08,0x6f,0x3a,0x13,0x52,0x50,0x47,0x3a,0x3a,0x4d,0x6f,0x76,0x65,0x52,0x6f,0x75,0x74,0x65,0x09,0x3a,0x0c,0x40,0x72,0x65,0x70,0x65,0x61,0x74,0x46,0x3a,0x0f,0x40,0x73,0x6b,0x69,0x70,0x70,0x61,0x62,0x6c,0x65,0x46,0x3a,0x0a,0x40,0x77,0x61,0x69,0x74,0x54,0x3a,0x0a,0x40,0x6c,0x69,0x73,0x74,0x5b,0x08,0x6f,0x3a,0x15,0x52,0x50,0x47,0x3a,0x3a,0x4d,0x6f,0x76,0x65,0x43,0x6f,0x6d,0x6d,0x61,0x6e,0x64,0x07,0x3a,0x0a,0x40,0x63,0x6f,0x64,0x65,0x69,0x06,0x3a,0x10,0x40,0x70,0x61,0x72,0x61,0x6d,0x65,0x74,0x65,0x72,0x73,0x5b,0x00,0x6f,0x3b,0x0a,0x07,0x3b,0x0b,0x69,0x06,0x3b,0x0c,0x5b,0x00,0x6f,0x3b,0x0a,0x07,0x3b,0x0b,0x69,0x00,0x3b,0x0c,0x5b,0x00))
  PictureDisplay(5,"80_m_batterfly_st11",0,0,20,0,100,100,0,0)
  PictureDisplay(6,"80_m_tento_st11",0,0,-230,0,100,100,0,0)
  PictureDisplay(7,"80_m_dragonfly_st11",0,0,220,0,100,100,0,0)
  PictureMove(5,null,0,0,20,0,100,100,255,0,30,false)
  PictureMove(6,null,0,0,-230,0,100,100,255,0,30,false)
  PictureMove(7,null,0,0,220,0,100,100,255,0,30,true)
  ShowMessageFace("m_batterfly_fc1",3,0,2,9)
  ShowMessage("\\n<Student A>Oh...?\nYou know outsiders aren't allowed in the academy, right?")
  ShowMessageFace("m_tento_fc1",3,0,2,10)
  ShowMessage("\\n<Student B>Breaking the rules. ♪\nBreaking the rules. ♪")
  ShowMessageFace("m_dragonfly_fc1",2,0,2,11)
  ShowMessage("\\n<Student C>Should we go get some upperclassmen, the principal, or...")
  If(0,6,0)
   ShowMessageFace("sonia_fc2",3,0,2,12)
   ShowMessage("\\n<Sonya>Umm, we have our reasons for being here...")
   0()
  Else()
   ShowMessageFace("ruka_fc1",0,0,2,13)
   ShowMessage("\\n<Luka>Umm, we have our reasons for being here...")
   0()
  EndIf()
  If(0,4,0)
   ShowMessageFace("alice_fc5",2,0,2,14)
   ShowMessage("\\n<Alice>Watch out, they're not human!")
   0()
  EndIf()
  If(0,5,0)
   ShowMessageFace("iriasu_fc4",7,0,2,15)
   ShowMessage("\\n<Ilias>Don't be fooled, they're monsters!")
   0()
  EndIf()
  ShowMessageFace("m_batterfly_fc1",3,0,2,16)
  ShowMessage("\\n<Student A>Ehehe... No one's going to mind if we make the intruders our toys. ♪")
  ShowMessageFace("m_tento_fc1",3,0,2,17)
  ShowMessage("\\n<Student B>Let's do it! ♪\nLet's do it! ♪")
  ShowMessageFace("m_dragonfly_fc1",2,0,2,18)
  ShowMessage("\\n<Student C>I have homework to do, but that's no fun...")
  250(bytes(0x04,0x08,0x6f,0x3a,0x0c,0x52,0x50,0x47,0x3a,0x3a,0x53,0x45,0x08,0x3a,0x0a,0x40,0x6e,0x61,0x6d,0x65,0x49,0x22,0x0b,0x4d,0x61,0x67,0x69,0x63,0x32,0x06,0x3a,0x06,0x45,0x54,0x3a,0x0b,0x40,0x70,0x69,0x74,0x63,0x68,0x69,0x69,0x3a,0x0c,0x40,0x76,0x6f,0x6c,0x75,0x6d,0x65,0x69,0x55))
  PictureDisplay(10,"sys_white",0,0,0,0,100,100,0,0)
  PictureMove(10,null,0,0,0,0,100,100,255,0,30,true)
  PictureDisplay(7,"80_m_batterfly_st01",0,0,0,130,100,100,255,0)
  PictureDisplay(6,"80_m_tento_st01",0,0,200,-30,100,100,255,0)
  PictureDisplay(5,"80_m_dragonfly_st01",0,0,-200,-30,100,100,255,0)
  PictureMove(10,null,0,0,0,0,100,100,0,0,30,true)
  PictureClear(10)
  ShowMessageFace("",0,0,2,19)
  ShowMessage("The students reveal their true forms!")
  If(4,41,0)
   ShowMessageFace("stein_fc2",0,0,2,20)
   ShowMessage("\\n<Promestein>It's rare to see magical types from the insect family. The magical academy is impressive for having students like them...")
   0()
  EndIf()
  ShowMessageFace("m_batterfly_fc1",0,0,2,21)
  ShowMessage("\\n<Magical Butterfly>Ahaha, we'll show you a great time... ♪")
  ShowMessageFace("ruka_fc1",0,0,2,22)
  ShowMessage("\\n<Luka>Kuh... Bring it on!")
  If(4,185,0)
   ShowMessageFace("radio_fc1",0,0,2,23)
   ShowMessage("\\n<Radio>Pest extermination...")
   0()
  EndIf()
  PictureClear(5)
  PictureClear(6)
  PictureClear(7)
  ChangeSwitch(81,81,0)
  Battle(0,650,false,false)
  ChangeSwitch(81,81,1)
  ChangeSelfSwitch("A",0)
  ChangeSwitch(2182,2182,0)
  If(0,4,0)
   ShowMessageFace("alice_fc5",0,0,2,24)
   ShowMessage("\\n<Alice>So much for infiltrating the academy. This is a raid now. Oh well, no turning back.")
   0()
  EndIf()
  If(0,5,0)
   ShowMessageFace("iriasu_fc4",0,0,2,25)
   ShowMessage("\\n<Ilias>Let's fight our way through the academy to Mephisto's room.")
   0()
  EndIf()
  0()
 PAGE   2
  // condition: self-switch A is ON
  0()



EVENT   14
 PAGE   1
  ShowMessageFace("",0,0,2,1)
  ShowMessage("There's a rough sketch of the academy grounds. It looks like Principal Mephisto's room is on the second floor.")
  0()



EVENT   15
 PAGE   1
  ShowMessageFace("m_tento_fc1",0,0,2,1)
  ShowMessage("\\n<Magical Ladybug>A very sexy freshman just enrolled.\nShe's a succubus too, right?")
  0()



EVENT   16
 PAGE   1
  ShowMessageFace("m_batterfly_fc1",0,0,2,1)
  ShowMessage("\\n<Magical Butterfly>Aren't there any interesting novels...?")
  0()



EVENT   17
 PAGE   1
  If(1,827,0,2,1)
   If(0,1576,1)
    ShowMessageFace("mob_gakusya2_fc1",0,0,2,1)
    ShowMessage("\\n<Rufa>Hey, I want to go out on a journey...\nI'll study a lot, so is it okay?")
    ShowChoices(strings("Let her join","Decline for now"),0)
    IfPlayerPicksChoice(0,null)
     ShowMessageFace("mob_gakusya2_fc1",0,0,2,2)
     ShowMessage("\\n<Rufa>All right, I'll study a lot!")
     PictureClear(5)
     205(0,bytes(0x04,0x08,0x6f,0x3a,0x13,0x52,0x50,0x47,0x3a,0x3a,0x4d,0x6f,0x76,0x65,0x52,0x6f,0x75,0x74,0x65,0x09,0x3a,0x0c,0x40,0x72,0x65,0x70,0x65,0x61,0x74,0x46,0x3a,0x0f,0x40,0x73,0x6b,0x69,0x70,0x70,0x61,0x62,0x6c,0x65,0x46,0x3a,0x0a,0x40,0x77,0x61,0x69,0x74,0x54,0x3a,0x0a,0x40,0x6c,0x69,0x73,0x74,0x5b,0x09,0x6f,0x3a,0x15,0x52,0x50,0x47,0x3a,0x3a,0x4d,0x6f,0x76,0x65,0x43,0x6f,0x6d,0x6d,0x61,0x6e,0x64,0x07,0x3a,0x0a,0x40,0x63,0x6f,0x64,0x65,0x69,0x2a,0x3a,0x10,0x40,0x70,0x61,0x72,0x61,0x6d,0x65,0x74,0x65,0x72,0x73,0x5b,0x00,0x6f,0x3b,0x0a,0x07,0x3b,0x0b,0x69,0x0f,0x3b,0x0c,0x5b,0x00,0x6f,0x3b,0x0a,0x07,0x3b,0x0b,0x69,0x2c,0x3b,0x0c,0x5b,0x00,0x6f,0x3b,0x0a,0x07,0x3b,0x0b,0x69,0x00,0x3b,0x0c,0x5b,0x00))
     355("add_actor_ex(576)")
     249(bytes(0x04,0x08,0x6f,0x3a,0x0c,0x52,0x50,0x47,0x3a,0x3a,0x4d,0x45,0x08,0x3a,0x0a,0x40,0x6e,0x61,0x6d,0x65,0x49,0x22,0x0c,0x66,0x61,0x6e,0x66,0x61,0x6c,0x65,0x06,0x3a,0x06,0x45,0x54,0x3a,0x0b,0x40,0x70,0x69,0x74,0x63,0x68,0x69,0x69,0x3a,0x0c,0x40,0x76,0x6f,0x6c,0x75,0x6d,0x65,0x69,0x69))
     ShowMessageFace("",0,0,2,3)
     ShowMessage("Rufa joined the party!")
     Wait(60)
     EndEventProcessing()
     0()
    IfPlayerPicksChoice(1,null)
     ShowMessageFace("mob_gakusya2_fc1",1,0,2,4)
     ShowMessage("\\n<Rufa>I can't...? I'll go study more.")
     0()
    404()
    0()
   EndIf()
   0()
  EndIf()
  RunCommonEvent(7261)
  0()
 PAGE   2
  // condition: party contains actor #576
  0()



EVENT   18
 PAGE   1
  0()
 PAGE   2
  // condition: switch 2182 is ON
  0()



EVENT   19
 PAGE   1
  250(bytes(0x04,0x08,0x6f,0x3a,0x0c,0x52,0x50,0x47,0x3a,0x3a,0x53,0x45,0x08,0x3a,0x0a,0x40,0x6e,0x61,0x6d,0x65,0x49,0x22,0x0a,0x49,0x74,0x65,0x6d,0x31,0x06,0x3a,0x06,0x45,0x54,0x3a,0x0b,0x40,0x70,0x69,0x74,0x63,0x68,0x69,0x69,0x3a,0x0c,0x40,0x76,0x6f,0x6c,0x75,0x6d,0x65,0x69,0x55))
  ChangeSelfSwitch("A",0)
  ChangeInventory_Item(4,0,0,1)
  0()
 PAGE   2
  // condition: self-switch A is ON
  0()



EVENT   20
 PAGE   1
  250(bytes(0x04,0x08,0x6f,0x3a,0x0c,0x52,0x50,0x47,0x3a,0x3a,0x53,0x45,0x08,0x3a,0x0a,0x40,0x6e,0x61,0x6d,0x65,0x49,0x22,0x0a,0x49,0x74,0x65,0x6d,0x31,0x06,0x3a,0x06,0x45,0x54,0x3a,0x0b,0x40,0x70,0x69,0x74,0x63,0x68,0x69,0x69,0x3a,0x0c,0x40,0x76,0x6f,0x6c,0x75,0x6d,0x65,0x69,0x55))
  ChangeSelfSwitch("A",0)
  ChangeInventory_Item(429,0,0,1)
  0()
 PAGE   2
  // condition: self-switch A is ON
  0()



EVENT   21
 PAGE   1
  PictureDisplay(5,"80_arumaeruma_st71",0,0,0,0,100,100,0,0)
  PictureMove(5,null,0,0,0,0,100,100,255,0,30,true)
  If(2,"A",1)
   ChangeSelfSwitch("A",0)
   241(bytes(0x04,0x08,0x6f,0x3a,0x0d,0x52,0x50,0x47,0x3a,0x3a,0x42,0x47,0x4d,0x08,0x3a,0x0a,0x40,0x6e,0x61,0x6d,0x65,0x49,0x22,0x10,0x73,0x63,0x65,0x6e,0x65,0x5f,0x63,0x6f,0x6d,0x69,0x31,0x06,0x3a,0x06,0x45,0x54,0x3a,0x0c,0x40,0x76,0x6f,0x6c,0x75,0x6d,0x65,0x69,0x69,0x3a,0x0b,0x40,0x70,0x69,0x74,0x63,0x68,0x69,0x69))
   ShowMessageFace("arumaeruma_fc3",3,0,2,1)
   ShowMessage("\\n<Alma Elma>Oh, it's you guys...")
   If(0,4,0)
    ShowMessageFace("alice_fc5",6,0,2,2)
    ShowMessage("\\n<Alice>Alma Elma!?\nWhy are you dressed up like that!?")
    0()
   EndIf()
   If(0,5,0)
    ShowMessageFace("iriasu_fc4",5,0,2,3)
    ShowMessage("\\n<Ilias>Alma Elma!?\nWhat's with that outfit!?")
    0()
   EndIf()
   ShowMessageFace("arumaeruma_fc3",3,0,2,4)
   ShowMessage("\\n<Alma Elma>Isn't it obvious? I snuck in here to investigate. Mephisto set me up, and I can't let her off the hook that easily.")
   If(0,4,0)
    ShowMessageFace("alice_fc5",5,0,2,5)
    ShowMessage("\\n<Alice>I see...\nWell, do whatever you want.")
    0()
   EndIf()
   If(0,5,0)
    ShowMessageFace("iriasu_fc4",2,0,2,6)
    ShowMessage("\\n<Ilias>Aren't you a little old for this...?")
    0()
   EndIf()
   241(bytes(0x04,0x08,0x6f,0x3a,0x0d,0x52,0x50,0x47,0x3a,0x3a,0x42,0x47,0x4d,0x08,0x3a,0x0a,0x40,0x6e,0x61,0x6d,0x65,0x49,0x22,0x12,0x64,0x75,0x6e,0x67,0x65,0x6f,0x6e,0x5f,0x74,0x6f,0x73,0x79,0x6f,0x06,0x3a,0x06,0x45,0x54,0x3a,0x0c,0x40,0x76,0x6f,0x6c,0x75,0x6d,0x65,0x69,0x69,0x3a,0x0b,0x40,0x70,0x69,0x74,0x63,0x68,0x69,0x69))
   ShowMessageFace("arumaeruma_fc3",3,0,2,7)
   ShowMessage("\\n<Alma Elma>By the way...\nIt looks like Mephisto is having a private meeting with someone right now.")
   ShowMessageFace("arumaeruma_fc3",3,0,2,8)
   ShowMessage("\\n<Alma Elma>If you can get up to her room quick enough, you might be able to get to the bottom of this. ♪")
   If(0,6,0)
    ShowMessageFace("sonia_fc1",5,0,2,9)
    ShowMessage("\\n<Sonya>A private meeting? Catching her in the act would be the best evidence we could get!")
    0()
   Else()
    ShowMessageFace("ruka_fc1",0,0,2,10)
    ShowMessage("\\n<Luka>If we can catch her in the act, we'll have evidence that she's doing something wrong! Let's hurry!")
    0()
   EndIf()
   If(4,79,0)
    ShowMessageFace("nuruko_fc1",0,0,2,11)
    ShowMessage("\\n<Nuruko>Kyu kyu!")
    0()
   EndIf()
   PictureClear(5)
   EndEventProcessing()
   0()
  EndIf()
  ShowMessageFace("arumaeruma_fc3",3,0,2,12)
  ShowMessage("\\n<Alma Elma>I'm going to poke around the academy a bit longer. I kinda like this outfit... ♪")
  If(4,57,0)
   ShowMessageFace("inp_fc3",0,0,2,13)
   ShowMessage("\\n<Rumi>*salute*")
   0()
  EndIf()
  PictureClear(5)
  0()
 PAGE   2
  // condition: variable 1052 >= 8
  0()



EVENT   22
 PAGE   1
  ShowMessageFace("m_succubus_fc1",0,0,2,1)
  ShowMessage("\\n<Magical Succubus>Ah...I'm skipping class, keep it a secret.\nI'll do something really good later...")
  If(4,203,0)
   ShowMessageFace("tatunoko_k_fc1",0,0,2,2)
   ShowMessage("\\n<Tatsuko>You'd do something good...?\nYou're a very admirable student!")
   ShowMessageFace("m_succubus_fc1",1,0,2,3)
   ShowMessage("\\n<Magical Succubus>What a cute kid...♪")
   0()
  EndIf()
  0()



EVENT   23
 PAGE   1
  ShowMessageFace("m_elf_fc1",0,0,2,1)
  ShowMessage("\\n<Magical Elf>Be quiet in the library!")
  0()



EVENT   24
 PAGE   1
  ShowMessageFace("m_dragonfly_fc1",0,0,2,1)
  ShowMessage("\\n<Magical Dragonfly>I love magical experiments...")
  355("actor_label_jump")
  EndEventProcessing()
  DefineLabel("41")
  ShowMessageFace("stein_fc2",1,0,2,2)
  ShowMessage("\\n<Promestein>It is definitely the true charm of science!")
  EndEventProcessing()
  DefineLabel("134")
  ShowMessageFace("chrom_fc2",1,0,2,3)
  ShowMessage("\\n<Chrome>I also love experiments!")
  EndEventProcessing()
  DefineLabel("182")
  ShowMessageFace("c_homunculus_fc1",0,0,2,4)
  ShowMessage("\\n<Crowley>Would you like to experiment with me?\nI have all sorts of materials...")
  EndEventProcessing()
  0()



EVENT   25
 PAGE   1
  ShowMessageFace("m_elf_fc1",0,0,2,1)
  ShowMessage("\\n<Magical Elf>Hey, are you listening to me?\nLet's review the three elements once more!")
  If(4,163,0)
   ShowMessageFace("lily_fc1",3,0,2,2)
   ShowMessage("\\n<Lily>The foundational theory of the three elements...\nThis takes me back to when I studied them in books.")
   0()
  EndIf()
  0()



EVENT   26
 PAGE   1
  ShowMessageFace("m_dragonfly_fc1",0,0,2,1)
  ShowMessage("\\n<Magical Dragonfly>Are there any males in this school, you ask?\nThe teacher brings them in as food and lesson materials.")
  0()



EVENT   27
 PAGE   1
  ShowMessageFace("m_batterfly_fc1",0,0,2,1)
  ShowMessage("\\n<Magical Butterfly>Can't class end sooner?")
  0()



EVENT   28
 PAGE   1
  ShowMessageFace("m_tento_fc1",0,0,2,1)
  ShowMessage("\\n<Magical Ladybug>An upperclassman is teaching us.\nIt's not very fun!")
  0()



EVENT   29
 PAGE   1
  ShowMessageFace("m_succubus_fc1",0,0,2,1)
  ShowMessage("\\n<Magical Succubus>If we're talking about the best succubus wizard...\nI'd go with Miss Witch from Succubus Village.")
  ShowMessageFace("m_succubus_fc1",0,0,2,2)
  ShowMessage("\\n<Magical Succubus>She's one of the most distinguished wizards in the world, so I admire her.")
  355("actor_label_jump")
  EndEventProcessing()
  DefineLabel("286")
  ShowMessageFace("witchs_fc1",1,0,2,3)
  ShowMessage("\\n<Witch>Ara, I'm honored...")
  ShowMessageFace("m_succubus_fc1",1,0,2,4)
  ShowMessage("\\n<Magical Succubus>Huh, you're...?!\nAmazing! Please give me your autograph!")
  EndEventProcessing()
  0()



EVENT   30
 PAGE   1
  ShowMessageFace("m_elf_fc1",0,0,2,1)
  ShowMessage("\\n<Magical Elf>What are you wandering around for?!\nSit down and study on your own!")
  0()



EVENT   31
 PAGE   1
  ShowMessageFace("m_fairy_fc1",1,0,2,1)
  ShowMessage("\\n<Magical Pixie>I'm not really serious about independent study. ♪")
  0()



EVENT   32
 PAGE   1
  ShowMessageFace("m_dragonfly_fc1",0,0,2,1)
  ShowMessage("\\n<Magical Dragonfly>Ah... An intruder?\nI won't attack, I don't want you to think we're uncivilized students.")
  355("actor_label_jump")
  EndEventProcessing()
  DefineLabel("165")
  ShowMessageFace("onaho_fc1",0,0,2,2)
  ShowMessage("\\n<Naho>There are reasonable people here too...♪")
  EndEventProcessing()
  0()



EVENT   33
 PAGE   1
  ShowMessageFace("m_batterfly_fc1",0,0,2,1)
  ShowMessage("\\n<Magical Butterfly>White magic is boring...\nBlack magic is fun and colorful.")
  355("actor_label_jump")
  EndEventProcessing()
  DefineLabel("163")
  ShowMessageFace("lily_fc1",3,0,2,2)
  ShowMessage("\\n<Lily>I agree with that...")
  EndEventProcessing()
  0()



EVENT   34
 PAGE   1
  If(1,1052,0,7,2)
   ShowMessageFace("m_succubus_fc1",0,0,2,1)
   ShowMessage("\\n<Magical Succubus>No way...\nCould that person possibly be...")
   If(4,57,0)
    ShowMessageFace("inp_fc3",0,0,2,2)
    ShowMessage("\\n<Rumi>.....!!")
    0()
   EndIf()
   EndEventProcessing()
   0()
  EndIf()
  If(1,1052,0,8,1)
   ShowMessageFace("m_succubus_fc1",0,0,2,3)
   ShowMessage("\\n<Magical Succubus>The school is peaceful today.\nIs it okay even if the outside world appears to be in great upheaval...?")
   EndEventProcessing()
   0()
  EndIf()
  0()

EVENT   35
 PAGE   1
  ShowMessageFace("m_dragonfly_fc1",0,0,2,1)
  ShowMessage("\\n<Magical Dragonfly>I enjoy reading books. I dislike physical education...")
  355("actor_label_jump")
  EndEventProcessing()
  DefineLabel("120")
  ShowMessageFace("page257_fc1",0,0,2,2)
  ShowMessage("\\n<Yoko>Yes, I agree...")
  EndEventProcessing()
  DefineLabel("121")
  ShowMessageFace("page65537_fc1",1,0,2,3)
  ShowMessage("\\n<Cornelia>Reading and exercise is a good balance.\nYou shouldn't be completely devoted to one or the other...")
  EndEventProcessing()
  0()



EVENT   36
 PAGE   1
  ShowMessageFace("m_tento_fc1",0,0,2,1)
  ShowMessage("\\n<Magical Ladybug>I'm hungry...")
  355("actor_label_jump")
  EndEventProcessing()
  DefineLabel("92")
  ShowMessageFace("eater_fc1",0,0,2,2)
  ShowMessage("\\n<Eater>Me too...")
  EndEventProcessing()
  0()



EVENT   37
 PAGE   1
  ShowMessageFace("m_dragonfly_fc1",0,0,2,1)
  ShowMessage("\\n<Magical Dragonfly>I should buy some orange juice on my way home today... I like it, but...we're not allowed to bring food into the classroom.")
  0()



EVENT   38
 PAGE   1
  ShowMessageFace("m_batterfly_fc1",0,0,2,1)
  ShowMessage("\\n<Magical Butterfly>Professor Mephisto is amazing.\nShe can identify every student by their faces!")
  ShowMessageFace("m_dragonfly_fc1",0,0,2,2)
  ShowMessage("\\n<Magical Dragonfly>Even my friends don't always recognize me...")
  355("actor_label_jump")
  EndEventProcessing()
  DefineLabel("204")
  ShowMessageFace("umiusi_k_fc1",0,0,2,3)
  ShowMessage("\\n<Stacy>I actually can't distinguish Tatsuko-chan apart from others either.")
  EndEventProcessing()
  0()



EVENT   39
 PAGE   1
  ShowMessageFace("m_elf_fc1",0,0,2,1)
  ShowMessage("\\n<Magical Elf>Hey! No running in the hallway!")
  355("actor_label_jump")
  EndEventProcessing()
  DefineLabel("101")
  ShowMessageFace("cent2_fc1",0,0,2,2)
  ShowMessage("\\n<Lichtina>Don't deny me my reason for living...")
  EndEventProcessing()
  DefineLabel("202")
  ShowMessageFace("bonny_fc1",0,0,2,3)
  ShowMessage("\\n<Bonnie>You're a bossy girl like Ashel...")
  EndEventProcessing()
  DefineLabel("207")
  ShowMessageFace("centa_fc1",0,0,2,4)
  ShowMessage("\\n<Pony>Don't tell me I can't!")
  EndEventProcessing()
  0()



EVENT   40
 PAGE   1
  ShowMessageFace("m_tento_fc1",0,0,2,1)
  ShowMessage("\\n<Magical Ladybug>Bossy elf...")
  0()


