﻿


EVENT   1
 PAGE   1
  // condition: variable 125 >= 1
  RunCommonEvent(901)
  0()
 PAGE   2
  // condition: variable 125 >= 2
  0()



EVENT   2
 PAGE   1
  // condition: variable 125 >= 1
  RunCommonEvent(901)
  0()
 PAGE   2
  // condition: variable 125 >= 2
  0()



EVENT   3
 PAGE   1
  // condition: variable 125 >= 2
  RunCommonEvent(901)
  0()
 PAGE   2
  // condition: variable 125 >= 3
  0()



EVENT   4
 PAGE   1
  // condition: variable 125 >= 2
  RunCommonEvent(901)
  0()
 PAGE   2
  // condition: variable 125 >= 3
  0()



EVENT   5
 PAGE   1
  // condition: variable 125 >= 3
  RunCommonEvent(901)
  0()



EVENT   6
 PAGE   1
  // condition: variable 125 >= 3
  RunCommonEvent(901)
  0()



EVENT   7
 PAGE   1
  // condition: switch 42 is ON
  250(bytes(0x04,0x08,0x6f,0x3a,0x0c,0x52,0x50,0x47,0x3a,0x3a,0x53,0x45,0x08,0x3a,0x0a,0x40,0x6e,0x61,0x6d,0x65,0x49,0x22,0x0a,0x43,0x68,0x65,0x73,0x74,0x06,0x3a,0x06,0x45,0x54,0x3a,0x0b,0x40,0x70,0x69,0x74,0x63,0x68,0x69,0x69,0x3a,0x0c,0x40,0x76,0x6f,0x6c,0x75,0x6d,0x65,0x69,0x55))
  205(0,bytes(0x04,0x08,0x6f,0x3a,0x13,0x52,0x50,0x47,0x3a,0x3a,0x4d,0x6f,0x76,0x65,0x52,0x6f,0x75,0x74,0x65,0x09,0x3a,0x0c,0x40,0x72,0x65,0x70,0x65,0x61,0x74,0x46,0x3a,0x0f,0x40,0x73,0x6b,0x69,0x70,0x70,0x61,0x62,0x6c,0x65,0x46,0x3a,0x0a,0x40,0x77,0x61,0x69,0x74,0x54,0x3a,0x0a,0x40,0x6c,0x69,0x73,0x74,0x5b,0x0b,0x6f,0x3a,0x15,0x52,0x50,0x47,0x3a,0x3a,0x4d,0x6f,0x76,0x65,0x43,0x6f,0x6d,0x6d,0x61,0x6e,0x64,0x07,0x3a,0x0a,0x40,0x63,0x6f,0x64,0x65,0x69,0x29,0x3a,0x10,0x40,0x70,0x61,0x72,0x61,0x6d,0x65,0x74,0x65,0x72,0x73,0x5b,0x00,0x6f,0x3b,0x0a,0x07,0x3b,0x0b,0x69,0x16,0x3b,0x0c,0x5b,0x00,0x6f,0x3b,0x0a,0x07,0x3b,0x0b,0x69,0x14,0x3b,0x0c,0x5b,0x06,0x69,0x08,0x6f,0x3b,0x0a,0x07,0x3b,0x0b,0x69,0x17,0x3b,0x0c,0x5b,0x00,0x6f,0x3b,0x0a,0x07,0x3b,0x0b,0x69,0x14,0x3b,0x0c,0x5b,0x06,0x69,0x08,0x6f,0x3b,0x0a,0x07,0x3b,0x0b,0x69,0x00,0x3b,0x0c,0x5b,0x00))
  ChangeSwitch(45,45,0)
  RunCommonEvent(903)
  0()
 PAGE   2
  // condition: switch 42 is ON
  // condition: switch 45 is ON
  0()



EVENT   8
 PAGE   1
  // condition: switch 42 is ON
  250(bytes(0x04,0x08,0x6f,0x3a,0x0c,0x52,0x50,0x47,0x3a,0x3a,0x53,0x45,0x08,0x3a,0x0a,0x40,0x6e,0x61,0x6d,0x65,0x49,0x22,0x0a,0x43,0x68,0x65,0x73,0x74,0x06,0x3a,0x06,0x45,0x54,0x3a,0x0b,0x40,0x70,0x69,0x74,0x63,0x68,0x69,0x69,0x3a,0x0c,0x40,0x76,0x6f,0x6c,0x75,0x6d,0x65,0x69,0x55))
  205(0,bytes(0x04,0x08,0x6f,0x3a,0x13,0x52,0x50,0x47,0x3a,0x3a,0x4d,0x6f,0x76,0x65,0x52,0x6f,0x75,0x74,0x65,0x09,0x3a,0x0c,0x40,0x72,0x65,0x70,0x65,0x61,0x74,0x46,0x3a,0x0f,0x40,0x73,0x6b,0x69,0x70,0x70,0x61,0x62,0x6c,0x65,0x46,0x3a,0x0a,0x40,0x77,0x61,0x69,0x74,0x54,0x3a,0x0a,0x40,0x6c,0x69,0x73,0x74,0x5b,0x0b,0x6f,0x3a,0x15,0x52,0x50,0x47,0x3a,0x3a,0x4d,0x6f,0x76,0x65,0x43,0x6f,0x6d,0x6d,0x61,0x6e,0x64,0x07,0x3a,0x0a,0x40,0x63,0x6f,0x64,0x65,0x69,0x29,0x3a,0x10,0x40,0x70,0x61,0x72,0x61,0x6d,0x65,0x74,0x65,0x72,0x73,0x5b,0x00,0x6f,0x3b,0x0a,0x07,0x3b,0x0b,0x69,0x16,0x3b,0x0c,0x5b,0x00,0x6f,0x3b,0x0a,0x07,0x3b,0x0b,0x69,0x14,0x3b,0x0c,0x5b,0x06,0x69,0x08,0x6f,0x3b,0x0a,0x07,0x3b,0x0b,0x69,0x17,0x3b,0x0c,0x5b,0x00,0x6f,0x3b,0x0a,0x07,0x3b,0x0b,0x69,0x14,0x3b,0x0c,0x5b,0x06,0x69,0x08,0x6f,0x3b,0x0a,0x07,0x3b,0x0b,0x69,0x00,0x3b,0x0c,0x5b,0x00))
  ChangeSwitch(46,46,0)
  RunCommonEvent(903)
  0()
 PAGE   2
  // condition: switch 42 is ON
  // condition: switch 46 is ON
  0()



EVENT   9
 PAGE   1
  // condition: switch 42 is ON
  250(bytes(0x04,0x08,0x6f,0x3a,0x0c,0x52,0x50,0x47,0x3a,0x3a,0x53,0x45,0x08,0x3a,0x0a,0x40,0x6e,0x61,0x6d,0x65,0x49,0x22,0x0a,0x43,0x68,0x65,0x73,0x74,0x06,0x3a,0x06,0x45,0x54,0x3a,0x0b,0x40,0x70,0x69,0x74,0x63,0x68,0x69,0x69,0x3a,0x0c,0x40,0x76,0x6f,0x6c,0x75,0x6d,0x65,0x69,0x55))
  205(0,bytes(0x04,0x08,0x6f,0x3a,0x13,0x52,0x50,0x47,0x3a,0x3a,0x4d,0x6f,0x76,0x65,0x52,0x6f,0x75,0x74,0x65,0x09,0x3a,0x0c,0x40,0x72,0x65,0x70,0x65,0x61,0x74,0x46,0x3a,0x0f,0x40,0x73,0x6b,0x69,0x70,0x70,0x61,0x62,0x6c,0x65,0x46,0x3a,0x0a,0x40,0x77,0x61,0x69,0x74,0x54,0x3a,0x0a,0x40,0x6c,0x69,0x73,0x74,0x5b,0x0b,0x6f,0x3a,0x15,0x52,0x50,0x47,0x3a,0x3a,0x4d,0x6f,0x76,0x65,0x43,0x6f,0x6d,0x6d,0x61,0x6e,0x64,0x07,0x3a,0x0a,0x40,0x63,0x6f,0x64,0x65,0x69,0x29,0x3a,0x10,0x40,0x70,0x61,0x72,0x61,0x6d,0x65,0x74,0x65,0x72,0x73,0x5b,0x00,0x6f,0x3b,0x0a,0x07,0x3b,0x0b,0x69,0x16,0x3b,0x0c,0x5b,0x00,0x6f,0x3b,0x0a,0x07,0x3b,0x0b,0x69,0x14,0x3b,0x0c,0x5b,0x06,0x69,0x08,0x6f,0x3b,0x0a,0x07,0x3b,0x0b,0x69,0x17,0x3b,0x0c,0x5b,0x00,0x6f,0x3b,0x0a,0x07,0x3b,0x0b,0x69,0x14,0x3b,0x0c,0x5b,0x06,0x69,0x08,0x6f,0x3b,0x0a,0x07,0x3b,0x0b,0x69,0x00,0x3b,0x0c,0x5b,0x00))
  ChangeSwitch(47,47,0)
  RunCommonEvent(903)
  0()
 PAGE   2
  // condition: switch 42 is ON
  // condition: switch 47 is ON
  0()



EVENT   10
 PAGE   1
  // condition: switch 43 is ON
  250(bytes(0x04,0x08,0x6f,0x3a,0x0c,0x52,0x50,0x47,0x3a,0x3a,0x53,0x45,0x08,0x3a,0x0a,0x40,0x6e,0x61,0x6d,0x65,0x49,0x22,0x0a,0x43,0x68,0x65,0x73,0x74,0x06,0x3a,0x06,0x45,0x54,0x3a,0x0b,0x40,0x70,0x69,0x74,0x63,0x68,0x69,0x69,0x3a,0x0c,0x40,0x76,0x6f,0x6c,0x75,0x6d,0x65,0x69,0x55))
  205(0,bytes(0x04,0x08,0x6f,0x3a,0x13,0x52,0x50,0x47,0x3a,0x3a,0x4d,0x6f,0x76,0x65,0x52,0x6f,0x75,0x74,0x65,0x09,0x3a,0x0c,0x40,0x72,0x65,0x70,0x65,0x61,0x74,0x46,0x3a,0x0f,0x40,0x73,0x6b,0x69,0x70,0x70,0x61,0x62,0x6c,0x65,0x46,0x3a,0x0a,0x40,0x77,0x61,0x69,0x74,0x54,0x3a,0x0a,0x40,0x6c,0x69,0x73,0x74,0x5b,0x0b,0x6f,0x3a,0x15,0x52,0x50,0x47,0x3a,0x3a,0x4d,0x6f,0x76,0x65,0x43,0x6f,0x6d,0x6d,0x61,0x6e,0x64,0x07,0x3a,0x0a,0x40,0x63,0x6f,0x64,0x65,0x69,0x29,0x3a,0x10,0x40,0x70,0x61,0x72,0x61,0x6d,0x65,0x74,0x65,0x72,0x73,0x5b,0x00,0x6f,0x3b,0x0a,0x07,0x3b,0x0b,0x69,0x16,0x3b,0x0c,0x5b,0x00,0x6f,0x3b,0x0a,0x07,0x3b,0x0b,0x69,0x14,0x3b,0x0c,0x5b,0x06,0x69,0x08,0x6f,0x3b,0x0a,0x07,0x3b,0x0b,0x69,0x17,0x3b,0x0c,0x5b,0x00,0x6f,0x3b,0x0a,0x07,0x3b,0x0b,0x69,0x14,0x3b,0x0c,0x5b,0x06,0x69,0x08,0x6f,0x3b,0x0a,0x07,0x3b,0x0b,0x69,0x00,0x3b,0x0c,0x5b,0x00))
  ChangeSwitch(45,45,0)
  RunCommonEvent(903)
  0()
 PAGE   2
  // condition: switch 43 is ON
  // condition: switch 45 is ON
  0()



EVENT   11
 PAGE   1
  // condition: switch 43 is ON
  250(bytes(0x04,0x08,0x6f,0x3a,0x0c,0x52,0x50,0x47,0x3a,0x3a,0x53,0x45,0x08,0x3a,0x0a,0x40,0x6e,0x61,0x6d,0x65,0x49,0x22,0x0a,0x43,0x68,0x65,0x73,0x74,0x06,0x3a,0x06,0x45,0x54,0x3a,0x0b,0x40,0x70,0x69,0x74,0x63,0x68,0x69,0x69,0x3a,0x0c,0x40,0x76,0x6f,0x6c,0x75,0x6d,0x65,0x69,0x55))
  205(0,bytes(0x04,0x08,0x6f,0x3a,0x13,0x52,0x50,0x47,0x3a,0x3a,0x4d,0x6f,0x76,0x65,0x52,0x6f,0x75,0x74,0x65,0x09,0x3a,0x0c,0x40,0x72,0x65,0x70,0x65,0x61,0x74,0x46,0x3a,0x0f,0x40,0x73,0x6b,0x69,0x70,0x70,0x61,0x62,0x6c,0x65,0x46,0x3a,0x0a,0x40,0x77,0x61,0x69,0x74,0x54,0x3a,0x0a,0x40,0x6c,0x69,0x73,0x74,0x5b,0x0b,0x6f,0x3a,0x15,0x52,0x50,0x47,0x3a,0x3a,0x4d,0x6f,0x76,0x65,0x43,0x6f,0x6d,0x6d,0x61,0x6e,0x64,0x07,0x3a,0x0a,0x40,0x63,0x6f,0x64,0x65,0x69,0x29,0x3a,0x10,0x40,0x70,0x61,0x72,0x61,0x6d,0x65,0x74,0x65,0x72,0x73,0x5b,0x00,0x6f,0x3b,0x0a,0x07,0x3b,0x0b,0x69,0x16,0x3b,0x0c,0x5b,0x00,0x6f,0x3b,0x0a,0x07,0x3b,0x0b,0x69,0x14,0x3b,0x0c,0x5b,0x06,0x69,0x08,0x6f,0x3b,0x0a,0x07,0x3b,0x0b,0x69,0x17,0x3b,0x0c,0x5b,0x00,0x6f,0x3b,0x0a,0x07,0x3b,0x0b,0x69,0x14,0x3b,0x0c,0x5b,0x06,0x69,0x08,0x6f,0x3b,0x0a,0x07,0x3b,0x0b,0x69,0x00,0x3b,0x0c,0x5b,0x00))
  ChangeSwitch(46,46,0)
  RunCommonEvent(903)
  0()
 PAGE   2
  // condition: switch 43 is ON
  // condition: switch 46 is ON
  0()



EVENT   12
 PAGE   1
  // condition: switch 43 is ON
  250(bytes(0x04,0x08,0x6f,0x3a,0x0c,0x52,0x50,0x47,0x3a,0x3a,0x53,0x45,0x08,0x3a,0x0a,0x40,0x6e,0x61,0x6d,0x65,0x49,0x22,0x0a,0x43,0x68,0x65,0x73,0x74,0x06,0x3a,0x06,0x45,0x54,0x3a,0x0b,0x40,0x70,0x69,0x74,0x63,0x68,0x69,0x69,0x3a,0x0c,0x40,0x76,0x6f,0x6c,0x75,0x6d,0x65,0x69,0x55))
  205(0,bytes(0x04,0x08,0x6f,0x3a,0x13,0x52,0x50,0x47,0x3a,0x3a,0x4d,0x6f,0x76,0x65,0x52,0x6f,0x75,0x74,0x65,0x09,0x3a,0x0c,0x40,0x72,0x65,0x70,0x65,0x61,0x74,0x46,0x3a,0x0f,0x40,0x73,0x6b,0x69,0x70,0x70,0x61,0x62,0x6c,0x65,0x46,0x3a,0x0a,0x40,0x77,0x61,0x69,0x74,0x54,0x3a,0x0a,0x40,0x6c,0x69,0x73,0x74,0x5b,0x0b,0x6f,0x3a,0x15,0x52,0x50,0x47,0x3a,0x3a,0x4d,0x6f,0x76,0x65,0x43,0x6f,0x6d,0x6d,0x61,0x6e,0x64,0x07,0x3a,0x0a,0x40,0x63,0x6f,0x64,0x65,0x69,0x29,0x3a,0x10,0x40,0x70,0x61,0x72,0x61,0x6d,0x65,0x74,0x65,0x72,0x73,0x5b,0x00,0x6f,0x3b,0x0a,0x07,0x3b,0x0b,0x69,0x16,0x3b,0x0c,0x5b,0x00,0x6f,0x3b,0x0a,0x07,0x3b,0x0b,0x69,0x14,0x3b,0x0c,0x5b,0x06,0x69,0x08,0x6f,0x3b,0x0a,0x07,0x3b,0x0b,0x69,0x17,0x3b,0x0c,0x5b,0x00,0x6f,0x3b,0x0a,0x07,0x3b,0x0b,0x69,0x14,0x3b,0x0c,0x5b,0x06,0x69,0x08,0x6f,0x3b,0x0a,0x07,0x3b,0x0b,0x69,0x00,0x3b,0x0c,0x5b,0x00))
  ChangeSwitch(47,47,0)
  RunCommonEvent(903)
  0()
 PAGE   2
  // condition: switch 43 is ON
  // condition: switch 47 is ON
  0()



EVENT   13
 PAGE   1
  // condition: switch 44 is ON
  250(bytes(0x04,0x08,0x6f,0x3a,0x0c,0x52,0x50,0x47,0x3a,0x3a,0x53,0x45,0x08,0x3a,0x0a,0x40,0x6e,0x61,0x6d,0x65,0x49,0x22,0x0a,0x43,0x68,0x65,0x73,0x74,0x06,0x3a,0x06,0x45,0x54,0x3a,0x0b,0x40,0x70,0x69,0x74,0x63,0x68,0x69,0x69,0x3a,0x0c,0x40,0x76,0x6f,0x6c,0x75,0x6d,0x65,0x69,0x55))
  205(0,bytes(0x04,0x08,0x6f,0x3a,0x13,0x52,0x50,0x47,0x3a,0x3a,0x4d,0x6f,0x76,0x65,0x52,0x6f,0x75,0x74,0x65,0x09,0x3a,0x0c,0x40,0x72,0x65,0x70,0x65,0x61,0x74,0x46,0x3a,0x0f,0x40,0x73,0x6b,0x69,0x70,0x70,0x61,0x62,0x6c,0x65,0x46,0x3a,0x0a,0x40,0x77,0x61,0x69,0x74,0x54,0x3a,0x0a,0x40,0x6c,0x69,0x73,0x74,0x5b,0x0b,0x6f,0x3a,0x15,0x52,0x50,0x47,0x3a,0x3a,0x4d,0x6f,0x76,0x65,0x43,0x6f,0x6d,0x6d,0x61,0x6e,0x64,0x07,0x3a,0x0a,0x40,0x63,0x6f,0x64,0x65,0x69,0x29,0x3a,0x10,0x40,0x70,0x61,0x72,0x61,0x6d,0x65,0x74,0x65,0x72,0x73,0x5b,0x00,0x6f,0x3b,0x0a,0x07,0x3b,0x0b,0x69,0x16,0x3b,0x0c,0x5b,0x00,0x6f,0x3b,0x0a,0x07,0x3b,0x0b,0x69,0x14,0x3b,0x0c,0x5b,0x06,0x69,0x08,0x6f,0x3b,0x0a,0x07,0x3b,0x0b,0x69,0x17,0x3b,0x0c,0x5b,0x00,0x6f,0x3b,0x0a,0x07,0x3b,0x0b,0x69,0x14,0x3b,0x0c,0x5b,0x06,0x69,0x08,0x6f,0x3b,0x0a,0x07,0x3b,0x0b,0x69,0x00,0x3b,0x0c,0x5b,0x00))
  ChangeSwitch(45,45,0)
  RunCommonEvent(903)
  0()
 PAGE   2
  // condition: switch 44 is ON
  // condition: switch 45 is ON
  0()



EVENT   14
 PAGE   1
  // condition: switch 44 is ON
  250(bytes(0x04,0x08,0x6f,0x3a,0x0c,0x52,0x50,0x47,0x3a,0x3a,0x53,0x45,0x08,0x3a,0x0a,0x40,0x6e,0x61,0x6d,0x65,0x49,0x22,0x0a,0x43,0x68,0x65,0x73,0x74,0x06,0x3a,0x06,0x45,0x54,0x3a,0x0b,0x40,0x70,0x69,0x74,0x63,0x68,0x69,0x69,0x3a,0x0c,0x40,0x76,0x6f,0x6c,0x75,0x6d,0x65,0x69,0x55))
  205(0,bytes(0x04,0x08,0x6f,0x3a,0x13,0x52,0x50,0x47,0x3a,0x3a,0x4d,0x6f,0x76,0x65,0x52,0x6f,0x75,0x74,0x65,0x09,0x3a,0x0c,0x40,0x72,0x65,0x70,0x65,0x61,0x74,0x46,0x3a,0x0f,0x40,0x73,0x6b,0x69,0x70,0x70,0x61,0x62,0x6c,0x65,0x46,0x3a,0x0a,0x40,0x77,0x61,0x69,0x74,0x54,0x3a,0x0a,0x40,0x6c,0x69,0x73,0x74,0x5b,0x0b,0x6f,0x3a,0x15,0x52,0x50,0x47,0x3a,0x3a,0x4d,0x6f,0x76,0x65,0x43,0x6f,0x6d,0x6d,0x61,0x6e,0x64,0x07,0x3a,0x0a,0x40,0x63,0x6f,0x64,0x65,0x69,0x29,0x3a,0x10,0x40,0x70,0x61,0x72,0x61,0x6d,0x65,0x74,0x65,0x72,0x73,0x5b,0x00,0x6f,0x3b,0x0a,0x07,0x3b,0x0b,0x69,0x16,0x3b,0x0c,0x5b,0x00,0x6f,0x3b,0x0a,0x07,0x3b,0x0b,0x69,0x14,0x3b,0x0c,0x5b,0x06,0x69,0x08,0x6f,0x3b,0x0a,0x07,0x3b,0x0b,0x69,0x17,0x3b,0x0c,0x5b,0x00,0x6f,0x3b,0x0a,0x07,0x3b,0x0b,0x69,0x14,0x3b,0x0c,0x5b,0x06,0x69,0x08,0x6f,0x3b,0x0a,0x07,0x3b,0x0b,0x69,0x00,0x3b,0x0c,0x5b,0x00))
  ChangeSwitch(46,46,0)
  RunCommonEvent(903)
  0()
 PAGE   2
  // condition: switch 44 is ON
  // condition: switch 46 is ON
  0()



EVENT   15
 PAGE   1
  // condition: switch 44 is ON
  250(bytes(0x04,0x08,0x6f,0x3a,0x0c,0x52,0x50,0x47,0x3a,0x3a,0x53,0x45,0x08,0x3a,0x0a,0x40,0x6e,0x61,0x6d,0x65,0x49,0x22,0x0a,0x43,0x68,0x65,0x73,0x74,0x06,0x3a,0x06,0x45,0x54,0x3a,0x0b,0x40,0x70,0x69,0x74,0x63,0x68,0x69,0x69,0x3a,0x0c,0x40,0x76,0x6f,0x6c,0x75,0x6d,0x65,0x69,0x55))
  205(0,bytes(0x04,0x08,0x6f,0x3a,0x13,0x52,0x50,0x47,0x3a,0x3a,0x4d,0x6f,0x76,0x65,0x52,0x6f,0x75,0x74,0x65,0x09,0x3a,0x0c,0x40,0x72,0x65,0x70,0x65,0x61,0x74,0x46,0x3a,0x0f,0x40,0x73,0x6b,0x69,0x70,0x70,0x61,0x62,0x6c,0x65,0x46,0x3a,0x0a,0x40,0x77,0x61,0x69,0x74,0x54,0x3a,0x0a,0x40,0x6c,0x69,0x73,0x74,0x5b,0x0b,0x6f,0x3a,0x15,0x52,0x50,0x47,0x3a,0x3a,0x4d,0x6f,0x76,0x65,0x43,0x6f,0x6d,0x6d,0x61,0x6e,0x64,0x07,0x3a,0x0a,0x40,0x63,0x6f,0x64,0x65,0x69,0x29,0x3a,0x10,0x40,0x70,0x61,0x72,0x61,0x6d,0x65,0x74,0x65,0x72,0x73,0x5b,0x00,0x6f,0x3b,0x0a,0x07,0x3b,0x0b,0x69,0x16,0x3b,0x0c,0x5b,0x00,0x6f,0x3b,0x0a,0x07,0x3b,0x0b,0x69,0x14,0x3b,0x0c,0x5b,0x06,0x69,0x08,0x6f,0x3b,0x0a,0x07,0x3b,0x0b,0x69,0x17,0x3b,0x0c,0x5b,0x00,0x6f,0x3b,0x0a,0x07,0x3b,0x0b,0x69,0x14,0x3b,0x0c,0x5b,0x06,0x69,0x08,0x6f,0x3b,0x0a,0x07,0x3b,0x0b,0x69,0x00,0x3b,0x0c,0x5b,0x00))
  ChangeSwitch(47,47,0)
  RunCommonEvent(903)
  0()
 PAGE   2
  // condition: switch 44 is ON
  // condition: switch 47 is ON
  0()



EVENT   16
 PAGE   1
  RunCommonEvent(916)
  ChangeVariable(11,11,0,2,1,3)
  If(1,11,0,1,0)
   Battle(0,432,false,false)
   RunCommonEvent(917)
   TemporaryRemoveEvent()
   EndEventProcessing()
   0()
  EndIf()
  If(1,11,0,2,0)
   Battle(0,433,false,false)
   RunCommonEvent(917)
   TemporaryRemoveEvent()
   EndEventProcessing()
   0()
  EndIf()
  If(1,11,0,3,0)
   Battle(0,434,false,false)
   RunCommonEvent(917)
   TemporaryRemoveEvent()
   EndEventProcessing()
   0()
  EndIf()
  0()
 PAGE   2
  // condition: switch 73 is ON
  0()



EVENT   17
 PAGE   1
  // condition: variable 126 >= 1
  RunCommonEvent(601)
  0()
 PAGE   2
  // condition: variable 126 >= 3
  RunCommonEvent(616)
  0()
 PAGE   3
  // condition: variable 126 >= 4
  RunCommonEvent(617)
  0()
 PAGE   4
  // condition: variable 126 >= 5
  RunCommonEvent(618)
  0()
 PAGE   5
  // condition: variable 126 >= 6
  RunCommonEvent(619)
  0()
 PAGE   6
  // condition: variable 126 >= 7
  RunCommonEvent(620)
  0()
 PAGE   7
  // condition: variable 126 >= 8
  RunCommonEvent(621)
  0()
 PAGE   8
  // condition: variable 126 >= 9
  RunCommonEvent(622)
  0()
 PAGE   9
  // condition: variable 126 >= 10
  RunCommonEvent(623)
  0()
 PAGE   10
  // condition: variable 126 >= 11
  RunCommonEvent(613)
  0()
 PAGE   11
  // condition: variable 126 >= 12
  RunCommonEvent(614)
  0()
 PAGE   12
  // condition: variable 126 >= 13
  RunCommonEvent(615)
  0()
 PAGE   13
  // condition: variable 126 >= 14
  RunCommonEvent(608)
  0()
 PAGE   14
  // condition: variable 126 >= 15
  RunCommonEvent(610)
  0()
 PAGE   15
  // condition: variable 126 >= 16
  RunCommonEvent(609)
  0()
 PAGE   16
  // condition: variable 126 >= 17
  RunCommonEvent(611)
  0()
 PAGE   17
  // condition: variable 126 >= 18
  RunCommonEvent(612)
  0()
 PAGE   18
  // condition: variable 126 >= 19
  RunCommonEvent(642)
  0()
 PAGE   19
  // condition: variable 126 >= 20
  RunCommonEvent(603)
  0()
 PAGE   20
  // condition: variable 126 >= 21
  RunCommonEvent(640)
  0()
 PAGE   21
  // condition: variable 126 >= 22
  RunCommonEvent(641)
  0()
 PAGE   22
  // condition: variable 126 >= 23
  RunCommonEvent(624)
  0()
 PAGE   23
  // condition: variable 126 >= 24
  RunCommonEvent(630)
  0()
 PAGE   24
  // condition: variable 126 >= 25
  RunCommonEvent(631)
  0()
 PAGE   25
  // condition: variable 126 >= 26
  RunCommonEvent(632)
  0()
 PAGE   26
  // condition: variable 126 >= 27
  RunCommonEvent(648)
  0()
 PAGE   27
  // condition: variable 126 >= 28
  RunCommonEvent(649)
  0()
 PAGE   28
  // condition: variable 126 >= 29
  RunCommonEvent(650)
  0()
 PAGE   29
  // condition: variable 126 >= 30
  RunCommonEvent(651)
  0()
 PAGE   30
  // condition: variable 126 >= 31
  RunCommonEvent(652)
  0()
 PAGE   31
  // condition: variable 126 >= 32
  RunCommonEvent(653)
  0()
 PAGE   32
  // condition: variable 126 >= 33
  RunCommonEvent(654)
  0()
 PAGE   33
  // condition: variable 126 >= 34
  RunCommonEvent(655)
  0()
 PAGE   34
  // condition: variable 126 >= 35
  RunCommonEvent(656)
  0()
 PAGE   35
  // condition: variable 126 >= 36
  RunCommonEvent(657)
  0()
 PAGE   36
  // condition: variable 126 >= 37
  RunCommonEvent(658)
  0()
 PAGE   37
  // condition: variable 126 >= 38
  RunCommonEvent(659)
  0()
 PAGE   38
  // condition: variable 126 >= 39
  RunCommonEvent(660)
  0()
 PAGE   39
  // condition: variable 126 >= 40
  RunCommonEvent(661)
  0()
 PAGE   40
  // condition: variable 126 >= 41
  RunCommonEvent(662)
  0()
 PAGE   41
  // condition: variable 126 >= 42
  RunCommonEvent(606)
  0()
 PAGE   42
  // condition: variable 126 >= 45
  RunCommonEvent(643)
  0()
 PAGE   43
  // condition: variable 126 >= 47
  RunCommonEvent(604)
  0()
 PAGE   44
  // condition: variable 126 >= 51
  RunCommonEvent(605)
  0()
 PAGE   45
  // condition: variable 126 >= 55
  RunCommonEvent(646)
  0()
 PAGE   46
  // condition: variable 126 >= 59
  RunCommonEvent(647)
  0()
 PAGE   47
  // condition: variable 126 >= 63
  RunCommonEvent(626)
  0()
 PAGE   48
  // condition: variable 126 >= 65
  RunCommonEvent(602)
  0()
 PAGE   49
  // condition: variable 126 >= 69
  RunCommonEvent(625)
  0()
 PAGE   50
  // condition: variable 126 >= 70
  RunCommonEvent(607)
  Wait(15)
  250(bytes(0x04,0x08,0x6f,0x3a,0x0c,0x52,0x50,0x47,0x3a,0x3a,0x53,0x45,0x08,0x3a,0x0a,0x40,0x6e,0x61,0x6d,0x65,0x49,0x22,0x0d,0x6d,0x6f,0x6e,0x5f,0x77,0x61,0x72,0x70,0x06,0x3a,0x06,0x45,0x54,0x3a,0x0b,0x40,0x70,0x69,0x74,0x63,0x68,0x69,0x69,0x3a,0x0c,0x40,0x76,0x6f,0x6c,0x75,0x6d,0x65,0x69,0x69))
  TemporaryRemoveEvent()
  ShowMessageFace("",0,0,2,1)
  ShowMessage("Nero disappeared...")
  0()



EVENT   18
 PAGE   1
  // condition: variable 140 >= 20
  If(12,"unlock_level < 1")
   ShowMessageFace("",0,0,2,1)
   ShowMessage("The chest is locked.")
   EndEventProcessing()
   0()
  EndIf()
  250(bytes(0x04,0x08,0x6f,0x3a,0x0c,0x52,0x50,0x47,0x3a,0x3a,0x53,0x45,0x08,0x3a,0x0a,0x40,0x6e,0x61,0x6d,0x65,0x49,0x22,0x0a,0x43,0x68,0x65,0x73,0x74,0x06,0x3a,0x06,0x45,0x54,0x3a,0x0b,0x40,0x70,0x69,0x74,0x63,0x68,0x69,0x69,0x3a,0x0c,0x40,0x76,0x6f,0x6c,0x75,0x6d,0x65,0x69,0x55))
  205(0,bytes(0x04,0x08,0x6f,0x3a,0x13,0x52,0x50,0x47,0x3a,0x3a,0x4d,0x6f,0x76,0x65,0x52,0x6f,0x75,0x74,0x65,0x09,0x3a,0x0c,0x40,0x72,0x65,0x70,0x65,0x61,0x74,0x46,0x3a,0x0f,0x40,0x73,0x6b,0x69,0x70,0x70,0x61,0x62,0x6c,0x65,0x46,0x3a,0x0a,0x40,0x77,0x61,0x69,0x74,0x54,0x3a,0x0a,0x40,0x6c,0x69,0x73,0x74,0x5b,0x0b,0x6f,0x3a,0x15,0x52,0x50,0x47,0x3a,0x3a,0x4d,0x6f,0x76,0x65,0x43,0x6f,0x6d,0x6d,0x61,0x6e,0x64,0x07,0x3a,0x0a,0x40,0x63,0x6f,0x64,0x65,0x69,0x29,0x3a,0x10,0x40,0x70,0x61,0x72,0x61,0x6d,0x65,0x74,0x65,0x72,0x73,0x5b,0x00,0x6f,0x3b,0x0a,0x07,0x3b,0x0b,0x69,0x16,0x3b,0x0c,0x5b,0x00,0x6f,0x3b,0x0a,0x07,0x3b,0x0b,0x69,0x14,0x3b,0x0c,0x5b,0x06,0x69,0x08,0x6f,0x3b,0x0a,0x07,0x3b,0x0b,0x69,0x17,0x3b,0x0c,0x5b,0x00,0x6f,0x3b,0x0a,0x07,0x3b,0x0b,0x69,0x14,0x3b,0x0c,0x5b,0x06,0x69,0x08,0x6f,0x3b,0x0a,0x07,0x3b,0x0b,0x69,0x00,0x3b,0x0c,0x5b,0x00))
  ChangeSwitch(55,55,0)
  RunCommonEvent(913)
  0()
 PAGE   2
  // condition: switch 55 is ON
  // condition: variable 140 >= 20
  0()
 PAGE   3
  // condition: variable 140 >= 27
  If(12,"unlock_level < 2")
   ShowMessageFace("",0,0,2,1)
   ShowMessage("The chest is locked.")
   EndEventProcessing()
   0()
  EndIf()
  250(bytes(0x04,0x08,0x6f,0x3a,0x0c,0x52,0x50,0x47,0x3a,0x3a,0x53,0x45,0x08,0x3a,0x0a,0x40,0x6e,0x61,0x6d,0x65,0x49,0x22,0x0a,0x43,0x68,0x65,0x73,0x74,0x06,0x3a,0x06,0x45,0x54,0x3a,0x0b,0x40,0x70,0x69,0x74,0x63,0x68,0x69,0x69,0x3a,0x0c,0x40,0x76,0x6f,0x6c,0x75,0x6d,0x65,0x69,0x55))
  205(0,bytes(0x04,0x08,0x6f,0x3a,0x13,0x52,0x50,0x47,0x3a,0x3a,0x4d,0x6f,0x76,0x65,0x52,0x6f,0x75,0x74,0x65,0x09,0x3a,0x0c,0x40,0x72,0x65,0x70,0x65,0x61,0x74,0x46,0x3a,0x0f,0x40,0x73,0x6b,0x69,0x70,0x70,0x61,0x62,0x6c,0x65,0x46,0x3a,0x0a,0x40,0x77,0x61,0x69,0x74,0x54,0x3a,0x0a,0x40,0x6c,0x69,0x73,0x74,0x5b,0x0b,0x6f,0x3a,0x15,0x52,0x50,0x47,0x3a,0x3a,0x4d,0x6f,0x76,0x65,0x43,0x6f,0x6d,0x6d,0x61,0x6e,0x64,0x07,0x3a,0x0a,0x40,0x63,0x6f,0x64,0x65,0x69,0x29,0x3a,0x10,0x40,0x70,0x61,0x72,0x61,0x6d,0x65,0x74,0x65,0x72,0x73,0x5b,0x00,0x6f,0x3b,0x0a,0x07,0x3b,0x0b,0x69,0x16,0x3b,0x0c,0x5b,0x00,0x6f,0x3b,0x0a,0x07,0x3b,0x0b,0x69,0x14,0x3b,0x0c,0x5b,0x06,0x69,0x08,0x6f,0x3b,0x0a,0x07,0x3b,0x0b,0x69,0x17,0x3b,0x0c,0x5b,0x00,0x6f,0x3b,0x0a,0x07,0x3b,0x0b,0x69,0x14,0x3b,0x0c,0x5b,0x06,0x69,0x08,0x6f,0x3b,0x0a,0x07,0x3b,0x0b,0x69,0x00,0x3b,0x0c,0x5b,0x00))
  ChangeSwitch(55,55,0)
  RunCommonEvent(914)
  0()
 PAGE   4
  // condition: switch 55 is ON
  // condition: variable 140 >= 27
  0()
 PAGE   5
  // condition: variable 140 >= 30
  If(12,"unlock_level < 3")
   ShowMessageFace("",0,0,2,1)
   ShowMessage("The chest is locked.")
   EndEventProcessing()
   0()
  EndIf()
  250(bytes(0x04,0x08,0x6f,0x3a,0x0c,0x52,0x50,0x47,0x3a,0x3a,0x53,0x45,0x08,0x3a,0x0a,0x40,0x6e,0x61,0x6d,0x65,0x49,0x22,0x0a,0x43,0x68,0x65,0x73,0x74,0x06,0x3a,0x06,0x45,0x54,0x3a,0x0b,0x40,0x70,0x69,0x74,0x63,0x68,0x69,0x69,0x3a,0x0c,0x40,0x76,0x6f,0x6c,0x75,0x6d,0x65,0x69,0x55))
  205(0,bytes(0x04,0x08,0x6f,0x3a,0x13,0x52,0x50,0x47,0x3a,0x3a,0x4d,0x6f,0x76,0x65,0x52,0x6f,0x75,0x74,0x65,0x09,0x3a,0x0c,0x40,0x72,0x65,0x70,0x65,0x61,0x74,0x46,0x3a,0x0f,0x40,0x73,0x6b,0x69,0x70,0x70,0x61,0x62,0x6c,0x65,0x46,0x3a,0x0a,0x40,0x77,0x61,0x69,0x74,0x54,0x3a,0x0a,0x40,0x6c,0x69,0x73,0x74,0x5b,0x0b,0x6f,0x3a,0x15,0x52,0x50,0x47,0x3a,0x3a,0x4d,0x6f,0x76,0x65,0x43,0x6f,0x6d,0x6d,0x61,0x6e,0x64,0x07,0x3a,0x0a,0x40,0x63,0x6f,0x64,0x65,0x69,0x29,0x3a,0x10,0x40,0x70,0x61,0x72,0x61,0x6d,0x65,0x74,0x65,0x72,0x73,0x5b,0x00,0x6f,0x3b,0x0a,0x07,0x3b,0x0b,0x69,0x16,0x3b,0x0c,0x5b,0x00,0x6f,0x3b,0x0a,0x07,0x3b,0x0b,0x69,0x14,0x3b,0x0c,0x5b,0x06,0x69,0x08,0x6f,0x3b,0x0a,0x07,0x3b,0x0b,0x69,0x17,0x3b,0x0c,0x5b,0x00,0x6f,0x3b,0x0a,0x07,0x3b,0x0b,0x69,0x14,0x3b,0x0c,0x5b,0x06,0x69,0x08,0x6f,0x3b,0x0a,0x07,0x3b,0x0b,0x69,0x00,0x3b,0x0c,0x5b,0x00))
  ChangeSwitch(55,55,0)
  RunCommonEvent(915)
  0()
 PAGE   6
  // condition: switch 55 is ON
  // condition: variable 140 >= 30
  0()



EVENT   19
 PAGE   1
  RunCommonEvent(916)
  ChangeVariable(11,11,0,2,1,8)
  If(1,11,0,1,0)
   Battle(0,391,false,false)
   RunCommonEvent(917)
   TemporaryRemoveEvent()
   EndEventProcessing()
   0()
  EndIf()
  If(1,11,0,2,0)
   Battle(0,394,false,false)
   RunCommonEvent(917)
   TemporaryRemoveEvent()
   EndEventProcessing()
   0()
  EndIf()
  If(1,11,0,3,0)
   Battle(0,395,false,false)
   RunCommonEvent(917)
   TemporaryRemoveEvent()
   EndEventProcessing()
   0()
  EndIf()
  If(1,11,0,4,0)
   Battle(0,396,false,false)
   RunCommonEvent(917)
   TemporaryRemoveEvent()
   EndEventProcessing()
   0()
  EndIf()
  If(1,11,0,5,0)
   Battle(0,397,false,false)
   RunCommonEvent(917)
   TemporaryRemoveEvent()
   EndEventProcessing()
   0()
  EndIf()
  If(1,11,0,6,0)
   Battle(0,412,false,false)
   RunCommonEvent(917)
   TemporaryRemoveEvent()
   EndEventProcessing()
   0()
  EndIf()
  If(1,11,0,7,0)
   Battle(0,414,false,false)
   RunCommonEvent(917)
   TemporaryRemoveEvent()
   EndEventProcessing()
   0()
  EndIf()
  If(1,11,0,8,0)
   Battle(0,462,false,false)
   RunCommonEvent(917)
   TemporaryRemoveEvent()
   EndEventProcessing()
   0()
  EndIf()
  0()
 PAGE   2
  // condition: switch 73 is ON
  0()



EVENT   20
 PAGE   1
  RunCommonEvent(916)
  ChangeVariable(11,11,0,2,1,2)
  If(1,11,0,1,0)
   Battle(0,392,false,false)
   RunCommonEvent(917)
   TemporaryRemoveEvent()
   EndEventProcessing()
   0()
  EndIf()
  If(1,11,0,2,0)
   Battle(0,393,false,false)
   RunCommonEvent(917)
   TemporaryRemoveEvent()
   EndEventProcessing()
   0()
  EndIf()
  0()
 PAGE   2
  // condition: switch 73 is ON
  0()



EVENT   21
 PAGE   1
  RunCommonEvent(916)
  ChangeVariable(11,11,0,2,1,7)
  If(1,11,0,1,0)
   Battle(0,398,false,false)
   RunCommonEvent(917)
   TemporaryRemoveEvent()
   EndEventProcessing()
   0()
  EndIf()
  If(1,11,0,2,0)
   Battle(0,399,false,false)
   RunCommonEvent(917)
   TemporaryRemoveEvent()
   EndEventProcessing()
   0()
  EndIf()
  If(1,11,0,3,0)
   Battle(0,400,false,false)
   RunCommonEvent(917)
   TemporaryRemoveEvent()
   EndEventProcessing()
   0()
  EndIf()
  If(1,11,0,4,0)
   Battle(0,401,false,false)
   RunCommonEvent(917)
   TemporaryRemoveEvent()
   EndEventProcessing()
   0()
  EndIf()
  If(1,11,0,5,0)
   Battle(0,402,false,false)
   RunCommonEvent(917)
   TemporaryRemoveEvent()
   EndEventProcessing()
   0()
  EndIf()
  If(1,11,0,6,0)
   Battle(0,403,false,false)
   RunCommonEvent(917)
   TemporaryRemoveEvent()
   EndEventProcessing()
   0()
  EndIf()
  If(1,11,0,7,0)
   Battle(0,404,false,false)
   RunCommonEvent(917)
   TemporaryRemoveEvent()
   EndEventProcessing()
   0()
  EndIf()
  0()
 PAGE   2
  // condition: switch 73 is ON
  0()



EVENT   22
 PAGE   1
  RunCommonEvent(916)
  ChangeVariable(11,11,0,2,1,3)
  If(1,11,0,1,0)
   Battle(0,405,false,false)
   RunCommonEvent(917)
   TemporaryRemoveEvent()
   EndEventProcessing()
   0()
  EndIf()
  If(1,11,0,2,0)
   Battle(0,406,false,false)
   RunCommonEvent(917)
   TemporaryRemoveEvent()
   EndEventProcessing()
   0()
  EndIf()
  If(1,11,0,3,0)
   Battle(0,407,false,false)
   RunCommonEvent(917)
   TemporaryRemoveEvent()
   EndEventProcessing()
   0()
  EndIf()
  0()
 PAGE   2
  // condition: switch 73 is ON
  0()



EVENT   23
 PAGE   1
  RunCommonEvent(916)
  ChangeVariable(11,11,0,2,1,4)
  If(1,11,0,1,0)
   Battle(0,408,false,false)
   RunCommonEvent(917)
   TemporaryRemoveEvent()
   EndEventProcessing()
   0()
  EndIf()
  If(1,11,0,2,0)
   Battle(0,409,false,false)
   RunCommonEvent(917)
   TemporaryRemoveEvent()
   EndEventProcessing()
   0()
  EndIf()
  If(1,11,0,3,0)
   Battle(0,413,false,false)
   RunCommonEvent(917)
   TemporaryRemoveEvent()
   EndEventProcessing()
   0()
  EndIf()
  If(1,11,0,4,0)
   Battle(0,415,false,false)
   RunCommonEvent(917)
   TemporaryRemoveEvent()
   EndEventProcessing()
   0()
  EndIf()
  0()
 PAGE   2
  // condition: switch 73 is ON
  0()



EVENT   24
 PAGE   1
  RunCommonEvent(916)
  ChangeVariable(11,11,0,2,1,3)
  If(1,11,0,1,0)
   Battle(0,410,false,false)
   RunCommonEvent(917)
   TemporaryRemoveEvent()
   EndEventProcessing()
   0()
  EndIf()
  If(1,11,0,2,0)
   Battle(0,411,false,false)
   RunCommonEvent(917)
   TemporaryRemoveEvent()
   EndEventProcessing()
   0()
  EndIf()
  If(1,11,0,3,0)
   Battle(0,416,false,false)
   RunCommonEvent(917)
   TemporaryRemoveEvent()
   EndEventProcessing()
   0()
  EndIf()
  0()
 PAGE   2
  // condition: switch 73 is ON
  0()



EVENT   25
 PAGE   1
  RunCommonEvent(916)
  Battle(0,419,false,false)
  RunCommonEvent(917)
  TemporaryRemoveEvent()
  0()
 PAGE   2
  // condition: switch 73 is ON
  0()



EVENT   26
 PAGE   1
  RunCommonEvent(916)
  ChangeVariable(11,11,0,2,1,10)
  If(1,11,0,1,0)
   Battle(0,417,false,false)
   RunCommonEvent(917)
   TemporaryRemoveEvent()
   EndEventProcessing()
   0()
  EndIf()
  If(1,11,0,2,0)
   Battle(0,420,false,false)
   RunCommonEvent(917)
   TemporaryRemoveEvent()
   EndEventProcessing()
   0()
  EndIf()
  If(1,11,0,3,0)
   Battle(0,421,false,false)
   RunCommonEvent(917)
   TemporaryRemoveEvent()
   EndEventProcessing()
   0()
  EndIf()
  If(1,11,0,4,0)
   Battle(0,422,false,false)
   RunCommonEvent(917)
   TemporaryRemoveEvent()
   EndEventProcessing()
   0()
  EndIf()
  If(1,11,0,5,0)
   Battle(0,423,false,false)
   RunCommonEvent(917)
   TemporaryRemoveEvent()
   EndEventProcessing()
   0()
  EndIf()
  If(1,11,0,6,0)
   Battle(0,424,false,false)
   RunCommonEvent(917)
   TemporaryRemoveEvent()
   EndEventProcessing()
   0()
  EndIf()
  If(1,11,0,7,0)
   Battle(0,426,false,false)
   RunCommonEvent(917)
   TemporaryRemoveEvent()
   EndEventProcessing()
   0()
  EndIf()
  If(1,11,0,8,0)
   Battle(0,435,false,false)
   RunCommonEvent(917)
   TemporaryRemoveEvent()
   EndEventProcessing()
   0()
  EndIf()
  If(1,11,0,9,0)
   Battle(0,439,false,false)
   RunCommonEvent(917)
   TemporaryRemoveEvent()
   EndEventProcessing()
   0()
  EndIf()
  If(1,11,0,10,0)
   Battle(0,451,false,false)
   RunCommonEvent(917)
   TemporaryRemoveEvent()
   EndEventProcessing()
   0()
  EndIf()
  0()
 PAGE   2
  // condition: switch 73 is ON
  0()



EVENT   27
 PAGE   1
  RunCommonEvent(916)
  ChangeVariable(11,11,0,2,1,5)
  If(1,11,0,1,0)
   Battle(0,425,false,false)
   RunCommonEvent(917)
   TemporaryRemoveEvent()
   EndEventProcessing()
   0()
  EndIf()
  If(1,11,0,2,0)
   Battle(0,427,false,false)
   RunCommonEvent(917)
   TemporaryRemoveEvent()
   EndEventProcessing()
   0()
  EndIf()
  If(1,11,0,3,0)
   Battle(0,428,false,false)
   RunCommonEvent(917)
   TemporaryRemoveEvent()
   EndEventProcessing()
   0()
  EndIf()
  If(1,11,0,4,0)
   Battle(0,429,false,false)
   RunCommonEvent(917)
   TemporaryRemoveEvent()
   EndEventProcessing()
   0()
  EndIf()
  If(1,11,0,5,0)
   Battle(0,430,false,false)
   RunCommonEvent(917)
   TemporaryRemoveEvent()
   EndEventProcessing()
   0()
  EndIf()
  0()
 PAGE   2
  // condition: switch 73 is ON
  0()



EVENT   28
 PAGE   1
  RunCommonEvent(916)
  Battle(0,431,false,false)
  RunCommonEvent(917)
  TemporaryRemoveEvent()
  0()
 PAGE   2
  // condition: switch 73 is ON
  0()



EVENT   29
 PAGE   1
  RunCommonEvent(916)
  ChangeVariable(11,11,0,2,1,3)
  If(1,11,0,1,0)
   Battle(0,432,false,false)
   RunCommonEvent(917)
   TemporaryRemoveEvent()
   EndEventProcessing()
   0()
  EndIf()
  If(1,11,0,2,0)
   Battle(0,433,false,false)
   RunCommonEvent(917)
   TemporaryRemoveEvent()
   EndEventProcessing()
   0()
  EndIf()
  If(1,11,0,3,0)
   Battle(0,434,false,false)
   RunCommonEvent(917)
   TemporaryRemoveEvent()
   EndEventProcessing()
   0()
  EndIf()
  0()
 PAGE   2
  // condition: switch 73 is ON
  0()



EVENT   30
 PAGE   1
  RunCommonEvent(916)
  ChangeVariable(11,11,0,2,1,4)
  If(1,11,0,1,0)
   Battle(0,436,false,false)
   RunCommonEvent(917)
   TemporaryRemoveEvent()
   EndEventProcessing()
   0()
  EndIf()
  If(1,11,0,2,0)
   Battle(0,438,false,false)
   RunCommonEvent(917)
   TemporaryRemoveEvent()
   EndEventProcessing()
   0()
  EndIf()
  If(1,11,0,3,0)
   Battle(0,440,false,false)
   RunCommonEvent(917)
   TemporaryRemoveEvent()
   EndEventProcessing()
   0()
  EndIf()
  If(1,11,0,4,0)
   Battle(0,442,false,false)
   RunCommonEvent(917)
   TemporaryRemoveEvent()
   EndEventProcessing()
   0()
  EndIf()
  0()
 PAGE   2
  // condition: switch 73 is ON
  0()



EVENT   31
 PAGE   1
  RunCommonEvent(916)
  ChangeVariable(11,11,0,2,1,4)
  If(1,11,0,1,0)
   Battle(0,437,false,false)
   RunCommonEvent(917)
   TemporaryRemoveEvent()
   EndEventProcessing()
   0()
  EndIf()
  If(1,11,0,2,0)
   Battle(0,438,false,false)
   RunCommonEvent(917)
   TemporaryRemoveEvent()
   EndEventProcessing()
   0()
  EndIf()
  If(1,11,0,3,0)
   Battle(0,441,false,false)
   RunCommonEvent(917)
   TemporaryRemoveEvent()
   EndEventProcessing()
   0()
  EndIf()
  If(1,11,0,4,0)
   Battle(0,442,false,false)
   RunCommonEvent(917)
   TemporaryRemoveEvent()
   EndEventProcessing()
   0()
  EndIf()
  0()
 PAGE   2
  // condition: switch 73 is ON
  0()



EVENT   32
 PAGE   1
  RunCommonEvent(916)
  ChangeVariable(11,11,0,2,1,4)
  If(1,11,0,1,0)
   Battle(0,443,false,false)
   RunCommonEvent(917)
   TemporaryRemoveEvent()
   EndEventProcessing()
   0()
  EndIf()
  If(1,11,0,2,0)
   Battle(0,444,false,false)
   RunCommonEvent(917)
   TemporaryRemoveEvent()
   EndEventProcessing()
   0()
  EndIf()
  If(1,11,0,3,0)
   Battle(0,445,false,false)
   RunCommonEvent(917)
   TemporaryRemoveEvent()
   EndEventProcessing()
   0()
  EndIf()
  If(1,11,0,4,0)
   Battle(0,446,false,false)
   RunCommonEvent(917)
   TemporaryRemoveEvent()
   EndEventProcessing()
   0()
  EndIf()
  0()
 PAGE   2
  // condition: switch 73 is ON
  0()



EVENT   33
 PAGE   1
  RunCommonEvent(916)
  ChangeVariable(11,11,0,2,1,5)
  If(1,11,0,1,0)
   Battle(0,447,false,false)
   RunCommonEvent(917)
   TemporaryRemoveEvent()
   EndEventProcessing()
   0()
  EndIf()
  If(1,11,0,2,0)
   Battle(0,448,false,false)
   RunCommonEvent(917)
   TemporaryRemoveEvent()
   EndEventProcessing()
   0()
  EndIf()
  If(1,11,0,3,0)
   Battle(0,450,false,false)
   RunCommonEvent(917)
   TemporaryRemoveEvent()
   EndEventProcessing()
   0()
  EndIf()
  If(1,11,0,4,0)
   Battle(0,452,false,false)
   RunCommonEvent(917)
   TemporaryRemoveEvent()
   EndEventProcessing()
   0()
  EndIf()
  If(1,11,0,5,0)
   Battle(0,453,false,false)
   RunCommonEvent(917)
   TemporaryRemoveEvent()
   EndEventProcessing()
   0()
  EndIf()
  0()
 PAGE   2
  // condition: switch 73 is ON
  0()



EVENT   34
 PAGE   1
  RunCommonEvent(916)
  ChangeVariable(11,11,0,2,1,4)
  If(1,11,0,1,0)
   Battle(0,454,false,false)
   RunCommonEvent(917)
   TemporaryRemoveEvent()
   EndEventProcessing()
   0()
  EndIf()
  If(1,11,0,2,0)
   Battle(0,456,false,false)
   RunCommonEvent(917)
   TemporaryRemoveEvent()
   EndEventProcessing()
   0()
  EndIf()
  If(1,11,0,3,0)
   Battle(0,458,false,false)
   RunCommonEvent(917)
   TemporaryRemoveEvent()
   EndEventProcessing()
   0()
  EndIf()
  If(1,11,0,4,0)
   Battle(0,460,false,false)
   RunCommonEvent(917)
   TemporaryRemoveEvent()
   EndEventProcessing()
   0()
  EndIf()
  0()
 PAGE   2
  // condition: switch 73 is ON
  0()



EVENT   35
 PAGE   1
  RunCommonEvent(916)
  ChangeVariable(11,11,0,2,1,4)
  If(1,11,0,1,0)
   Battle(0,455,false,false)
   RunCommonEvent(917)
   TemporaryRemoveEvent()
   EndEventProcessing()
   0()
  EndIf()
  If(1,11,0,2,0)
   Battle(0,457,false,false)
   RunCommonEvent(917)
   TemporaryRemoveEvent()
   EndEventProcessing()
   0()
  EndIf()
  If(1,11,0,3,0)
   Battle(0,459,false,false)
   RunCommonEvent(917)
   TemporaryRemoveEvent()
   EndEventProcessing()
   0()
  EndIf()
  If(1,11,0,4,0)
   Battle(0,460,false,false)
   RunCommonEvent(917)
   TemporaryRemoveEvent()
   EndEventProcessing()
   0()
  EndIf()
  0()
 PAGE   2
  // condition: switch 73 is ON
  0()



EVENT   36
 PAGE   1
  RunCommonEvent(916)
  ChangeVariable(11,11,0,2,1,2)
  If(1,11,0,1,0)
   Battle(0,461,false,false)
   RunCommonEvent(917)
   TemporaryRemoveEvent()
   EndEventProcessing()
   0()
  EndIf()
  If(1,11,0,2,0)
   Battle(0,463,false,false)
   RunCommonEvent(917)
   TemporaryRemoveEvent()
   EndEventProcessing()
   0()
  EndIf()
  0()
 PAGE   2
  // condition: switch 73 is ON
  0()



EVENT   37
 PAGE   1
  RunCommonEvent(916)
  ChangeVariable(11,11,0,2,1,4)
  If(1,11,0,1,0)
   Battle(0,455,false,false)
   RunCommonEvent(917)
   TemporaryRemoveEvent()
   EndEventProcessing()
   0()
  EndIf()
  If(1,11,0,2,0)
   Battle(0,457,false,false)
   RunCommonEvent(917)
   TemporaryRemoveEvent()
   EndEventProcessing()
   0()
  EndIf()
  If(1,11,0,3,0)
   Battle(0,459,false,false)
   RunCommonEvent(917)
   TemporaryRemoveEvent()
   EndEventProcessing()
   0()
  EndIf()
  If(1,11,0,4,0)
   Battle(0,460,false,false)
   RunCommonEvent(917)
   TemporaryRemoveEvent()
   EndEventProcessing()
   0()
  EndIf()
  0()
 PAGE   2
  // condition: switch 73 is ON
  0()



EVENT   38
 PAGE   1
  RunCommonEvent(916)
  Battle(0,419,false,false)
  RunCommonEvent(917)
  TemporaryRemoveEvent()
  0()
 PAGE   2
  // condition: switch 73 is ON
  0()



EVENT   39
 PAGE   1
  RunCommonEvent(916)
  ChangeVariable(11,11,0,2,1,4)
  If(1,11,0,1,0)
   Battle(0,455,false,false)
   RunCommonEvent(917)
   TemporaryRemoveEvent()
   EndEventProcessing()
   0()
  EndIf()
  If(1,11,0,2,0)
   Battle(0,457,false,false)
   RunCommonEvent(917)
   TemporaryRemoveEvent()
   EndEventProcessing()
   0()
  EndIf()
  If(1,11,0,3,0)
   Battle(0,459,false,false)
   RunCommonEvent(917)
   TemporaryRemoveEvent()
   EndEventProcessing()
   0()
  EndIf()
  If(1,11,0,4,0)
   Battle(0,460,false,false)
   RunCommonEvent(917)
   TemporaryRemoveEvent()
   EndEventProcessing()
   0()
  EndIf()
  0()
 PAGE   2
  // condition: switch 73 is ON
  0()



EVENT   40
 PAGE   1
  RunCommonEvent(916)
  ChangeVariable(11,11,0,2,1,3)
  If(1,11,0,1,0)
   Battle(0,432,false,false)
   RunCommonEvent(917)
   TemporaryRemoveEvent()
   EndEventProcessing()
   0()
  EndIf()
  If(1,11,0,2,0)
   Battle(0,433,false,false)
   RunCommonEvent(917)
   TemporaryRemoveEvent()
   EndEventProcessing()
   0()
  EndIf()
  If(1,11,0,3,0)
   Battle(0,434,false,false)
   RunCommonEvent(917)
   TemporaryRemoveEvent()
   EndEventProcessing()
   0()
  EndIf()
  0()
 PAGE   2
  // condition: switch 73 is ON
  0()



EVENT   41
 PAGE   1
  RunCommonEvent(916)
  ChangeVariable(11,11,0,2,1,4)
  If(1,11,0,1,0)
   Battle(0,443,false,false)
   RunCommonEvent(917)
   TemporaryRemoveEvent()
   EndEventProcessing()
   0()
  EndIf()
  If(1,11,0,2,0)
   Battle(0,444,false,false)
   RunCommonEvent(917)
   TemporaryRemoveEvent()
   EndEventProcessing()
   0()
  EndIf()
  If(1,11,0,3,0)
   Battle(0,445,false,false)
   RunCommonEvent(917)
   TemporaryRemoveEvent()
   EndEventProcessing()
   0()
  EndIf()
  If(1,11,0,4,0)
   Battle(0,446,false,false)
   RunCommonEvent(917)
   TemporaryRemoveEvent()
   EndEventProcessing()
   0()
  EndIf()
  0()
 PAGE   2
  // condition: switch 73 is ON
  0()



EVENT   42
 PAGE   1
  221()
  ChangeSwitch(41,41,1)
  ChangeSwitch(52,52,1)
  ChangeSaveEnabled(1)
  ChangeSwitch(61,61,1)
  ChangeSwitch(62,62,1)
  ChangeSwitch(63,63,1)
  ChangeSwitch(64,64,1)
  ChangeSwitch(65,65,1)
  ChangeSwitch(69,69,1)
  ChangeSwitch(70,70,1)
  ChangeSwitch(71,71,1)
  ChangeSwitch(72,72,1)
  ChangeSwitch(54,54,1)
  ChangeSwitch(66,66,1)
  ChangeSwitch(67,67,1)
  ChangeSwitch(68,68,1)
  ChangeVariable(131,131,0,0,0)
  ChangeVariable(121,121,0,0,0)
  RunCommonEvent(112)
  If(1,121,1,122,1)
   ChangeVariable(122,122,0,1,121)
   0()
  EndIf()
  TeleportPlayer(0,576,14,50,2,2)
  ShowMessageFace("",0,0,2,1)
  ShowMessage("The Labyrinth of Chaos is shifting! You're being forced out!")
  Wait(60)
  222()
  TemporaryRemoveEvent()
  0()
 PAGE   2
  // condition: switch 1926 is ON
  0()
