


EVENT   1
 PAGE   1
  0()



EVENT   2
 PAGE   1
  0()



EVENT   3
 PAGE   1
  0()



EVENT   4
 PAGE   1
  0()



EVENT   5
 PAGE   1
  0()



EVENT   6
 PAGE   1
  0()



EVENT   7
 PAGE   1
  0()



EVENT   8
 PAGE   1
  0()



EVENT   9
 PAGE   1
  0()



EVENT   10
 PAGE   1
  0()



EVENT   11
 PAGE   1
  0()



EVENT   12
 PAGE   1
  0()



EVENT   13
 PAGE   1
  0()



EVENT   14
 PAGE   1
  0()



EVENT   15
 PAGE   1
  0()



EVENT   16
 PAGE   1
  0()



EVENT   17
 PAGE   1
  0()



EVENT   18
 PAGE   1
  0()



EVENT   19
 PAGE   1
  0()



EVENT   20
 PAGE   1
  0()



EVENT   21
 PAGE   1
  // condition: switch 621 is ON
  241(bytes(0x04,0x08,0x6f,0x3a,0x0d,0x52,0x50,0x47,0x3a,0x3a,0x42,0x47,0x4d,0x08,0x3a,0x0a,0x40,0x6e,0x61,0x6d,0x65,0x49,0x22,0x0b,0x73,0x74,0x61,0x67,0x65,0x31,0x06,0x3a,0x06,0x45,0x54,0x3a,0x0c,0x40,0x76,0x6f,0x6c,0x75,0x6d,0x65,0x69,0x69,0x3a,0x0b,0x40,0x70,0x69,0x74,0x63,0x68,0x69,0x69))
  ShowMessageFace("mdg_fc1",0,0,2,1)
  ShowMessage("\\n<Ragora>Everyone, thank you for coming here to see me!")
  ShowMessageFace("mdg_fc1",0,0,2,2)
  ShowMessage("\\n<Ragora>I will now sing... \"Fluttering Leaves.\" ♪")
  ShowMessageFace("mdg_fc1",2,0,2,3)
  ShowMessage("\\n<Ragora>HYAAAAAAAAAAAAAAAAAAA!!!")
  ShowMessageFace("",0,0,2,4)
  ShowMessage("\\n<Audience A>WOAHH!!")
  ShowMessageFace("",0,0,2,5)
  ShowMessage("\\n<Audience B>GYAHHHHH!!")
  ShowMessageFace("",0,0,2,6)
  ShowMessage("The theater is filled with an agonizing cry!")
  Wait(30)
  221()
  242(1)
  Wait(60)
  211(1)
  281(1)
  TeleportPlayer(0,624,63,27,6,2)
  ChangeSwitch(2119,2119,0)
  222()
  ShowMessageFace("",0,0,2,7)
  ShowMessage("\\n<Manager>My right arm is still numb... So, the earplugs didn't work...")
  If(2,"A",1)
   ChangeSelfSwitch("A",0)
   250(bytes(0x04,0x08,0x6f,0x3a,0x0c,0x52,0x50,0x47,0x3a,0x3a,0x53,0x45,0x08,0x3a,0x0a,0x40,0x6e,0x61,0x6d,0x65,0x49,0x22,0x0a,0x49,0x74,0x65,0x6d,0x31,0x06,0x3a,0x06,0x45,0x54,0x3a,0x0b,0x40,0x70,0x69,0x74,0x63,0x68,0x69,0x69,0x3a,0x0c,0x40,0x76,0x6f,0x6c,0x75,0x6d,0x65,0x69,0x55))
   ChangeInventoryArmor(1558,0,0,1,false)
   0()
  EndIf()
  ChangeSwitch(2119,2119,1)
  EndEventProcessing()
  0()



EVENT   22
 PAGE   1
  // condition: switch 621 is ON
  0()
 PAGE   2
  // condition: switch 628 is ON
  0()
 PAGE   3
  // condition: switch 627 is ON
  0()



EVENT   23
 PAGE   1
  // condition: switch 622 is ON
  241(bytes(0x04,0x08,0x6f,0x3a,0x0d,0x52,0x50,0x47,0x3a,0x3a,0x42,0x47,0x4d,0x08,0x3a,0x0a,0x40,0x6e,0x61,0x6d,0x65,0x49,0x22,0x10,0x73,0x63,0x65,0x6e,0x65,0x5f,0x63,0x6f,0x6d,0x69,0x31,0x06,0x3a,0x06,0x45,0x54,0x3a,0x0c,0x40,0x76,0x6f,0x6c,0x75,0x6d,0x65,0x69,0x69,0x3a,0x0b,0x40,0x70,0x69,0x74,0x63,0x68,0x69,0x69))
  ShowMessageFace("hituzi_fc1",3,0,2,1)
  ShowMessage("\\n<Mary>Ouii! *hic*!")
  ShowMessageFace("hituzi_fc1",3,0,2,2)
  ShowMessage("\\n<Mary>Uehehehehe!")
  ShowMessageFace("",0,0,2,3)
  ShowMessage("\\n<Audience>......")
  ShowMessageFace("hituzi_fc1",3,0,2,4)
  ShowMessage("\\n<Mary>What'cha lookin' at?!")
  ShowMessageFace("hituzi_fc1",7,0,2,5)
  ShowMessage("\\n<Mary>*gulp**gulp**gulp*....")
  ShowMessageFace("hituzi_fc1",3,0,2,6)
  ShowMessage("\\n<Mary>Uehehehehe!")
  ShowMessageFace("",0,0,2,7)
  ShowMessage("\\n<Audience>......")
  ChangeSwitch(31,31,0)
  205(32,bytes(0x04,0x08,0x6f,0x3a,0x13,0x52,0x50,0x47,0x3a,0x3a,0x4d,0x6f,0x76,0x65,0x52,0x6f,0x75,0x74,0x65,0x09,0x3a,0x0c,0x40,0x72,0x65,0x70,0x65,0x61,0x74,0x46,0x3a,0x0f,0x40,0x73,0x6b,0x69,0x70,0x70,0x61,0x62,0x6c,0x65,0x46,0x3a,0x0a,0x40,0x77,0x61,0x69,0x74,0x54,0x3a,0x0a,0x40,0x6c,0x69,0x73,0x74,0x5b,0x09,0x6f,0x3a,0x15,0x52,0x50,0x47,0x3a,0x3a,0x4d,0x6f,0x76,0x65,0x43,0x6f,0x6d,0x6d,0x61,0x6e,0x64,0x07,0x3a,0x0a,0x40,0x63,0x6f,0x64,0x65,0x69,0x06,0x3a,0x10,0x40,0x70,0x61,0x72,0x61,0x6d,0x65,0x74,0x65,0x72,0x73,0x5b,0x00,0x6f,0x3b,0x0a,0x07,0x3b,0x0b,0x69,0x06,0x3b,0x0c,0x5b,0x00,0x6f,0x3b,0x0a,0x07,0x3b,0x0b,0x69,0x06,0x3b,0x0c,0x5b,0x00,0x6f,0x3b,0x0a,0x07,0x3b,0x0b,0x69,0x00,0x3b,0x0c,0x5b,0x00))
  205(33,bytes(0x04,0x08,0x6f,0x3a,0x13,0x52,0x50,0x47,0x3a,0x3a,0x4d,0x6f,0x76,0x65,0x52,0x6f,0x75,0x74,0x65,0x09,0x3a,0x0c,0x40,0x72,0x65,0x70,0x65,0x61,0x74,0x46,0x3a,0x0f,0x40,0x73,0x6b,0x69,0x70,0x70,0x61,0x62,0x6c,0x65,0x46,0x3a,0x0a,0x40,0x77,0x61,0x69,0x74,0x54,0x3a,0x0a,0x40,0x6c,0x69,0x73,0x74,0x5b,0x07,0x6f,0x3a,0x15,0x52,0x50,0x47,0x3a,0x3a,0x4d,0x6f,0x76,0x65,0x43,0x6f,0x6d,0x6d,0x61,0x6e,0x64,0x07,0x3a,0x0a,0x40,0x63,0x6f,0x64,0x65,0x69,0x18,0x3a,0x10,0x40,0x70,0x61,0x72,0x61,0x6d,0x65,0x74,0x65,0x72,0x73,0x5b,0x00,0x6f,0x3b,0x0a,0x07,0x3b,0x0b,0x69,0x00,0x3b,0x0c,0x5b,0x00))
  ShowMessageFace("usagi_fc1",4,0,2,8)
  ShowMessage("\\n<Barbun>Oh you, getting drunk in a place like this again...")
  ShowMessageFace("hituzi_fc1",3,0,2,9)
  ShowMessage("\\n<Mary>Rabbit's nagging sure is noisyyyy...")
  ShowMessageFace("usagi_fc1",4,0,2,10)
  ShowMessage("\\n<Barbun>C'mon, we're going home!")
  205(32,bytes(0x04,0x08,0x6f,0x3a,0x13,0x52,0x50,0x47,0x3a,0x3a,0x4d,0x6f,0x76,0x65,0x52,0x6f,0x75,0x74,0x65,0x09,0x3a,0x0c,0x40,0x72,0x65,0x70,0x65,0x61,0x74,0x46,0x3a,0x0f,0x40,0x73,0x6b,0x69,0x70,0x70,0x61,0x62,0x6c,0x65,0x46,0x3a,0x0a,0x40,0x77,0x61,0x69,0x74,0x46,0x3a,0x0a,0x40,0x6c,0x69,0x73,0x74,0x5b,0x0b,0x6f,0x3a,0x15,0x52,0x50,0x47,0x3a,0x3a,0x4d,0x6f,0x76,0x65,0x43,0x6f,0x6d,0x6d,0x61,0x6e,0x64,0x07,0x3a,0x0a,0x40,0x63,0x6f,0x64,0x65,0x69,0x2a,0x3a,0x10,0x40,0x70,0x61,0x72,0x61,0x6d,0x65,0x74,0x65,0x72,0x73,0x5b,0x00,0x6f,0x3b,0x0a,0x07,0x3b,0x0b,0x69,0x09,0x3b,0x0c,0x5b,0x00,0x6f,0x3b,0x0a,0x07,0x3b,0x0b,0x69,0x09,0x3b,0x0c,0x5b,0x00,0x6f,0x3b,0x0a,0x07,0x3b,0x0b,0x69,0x09,0x3b,0x0c,0x5b,0x00,0x6f,0x3b,0x0a,0x07,0x3b,0x0b,0x69,0x2c,0x3b,0x0c,0x5b,0x00,0x6f,0x3b,0x0a,0x07,0x3b,0x0b,0x69,0x00,0x3b,0x0c,0x5b,0x00))
  205(33,bytes(0x04,0x08,0x6f,0x3a,0x13,0x52,0x50,0x47,0x3a,0x3a,0x4d,0x6f,0x76,0x65,0x52,0x6f,0x75,0x74,0x65,0x09,0x3a,0x0c,0x40,0x72,0x65,0x70,0x65,0x61,0x74,0x46,0x3a,0x0f,0x40,0x73,0x6b,0x69,0x70,0x70,0x61,0x62,0x6c,0x65,0x46,0x3a,0x0a,0x40,0x77,0x61,0x69,0x74,0x54,0x3a,0x0a,0x40,0x6c,0x69,0x73,0x74,0x5b,0x0c,0x6f,0x3a,0x15,0x52,0x50,0x47,0x3a,0x3a,0x4d,0x6f,0x76,0x65,0x43,0x6f,0x6d,0x6d,0x61,0x6e,0x64,0x07,0x3a,0x0a,0x40,0x63,0x6f,0x64,0x65,0x69,0x2a,0x3a,0x10,0x40,0x70,0x61,0x72,0x61,0x6d,0x65,0x74,0x65,0x72,0x73,0x5b,0x00,0x6f,0x3b,0x0a,0x07,0x3b,0x0b,0x69,0x09,0x3b,0x0c,0x5b,0x00,0x6f,0x3b,0x0a,0x07,0x3b,0x0b,0x69,0x09,0x3b,0x0c,0x5b,0x00,0x6f,0x3b,0x0a,0x07,0x3b,0x0b,0x69,0x09,0x3b,0x0c,0x5b,0x00,0x6f,0x3b,0x0a,0x07,0x3b,0x0b,0x69,0x09,0x3b,0x0c,0x5b,0x00,0x6f,0x3b,0x0a,0x07,0x3b,0x0b,0x69,0x2c,0x3b,0x0c,0x5b,0x00,0x6f,0x3b,0x0a,0x07,0x3b,0x0b,0x69,0x00,0x3b,0x0c,0x5b,0x00))
  ChangeSwitch(31,31,1)
  ShowMessageFace("",0,0,2,11)
  ShowMessage("\\n<Audience>......")
  Wait(30)
  221()
  242(1)
  Wait(60)
  211(1)
  281(1)
  TeleportPlayer(0,624,63,27,6,2)
  ChangeSwitch(2119,2119,0)
  222()
  ShowMessageFace("",0,0,2,12)
  ShowMessage("\\n<Manager>Maybe I should hold back on the liquor too... Oh, it's nothing, just talking to myself.")
  If(2,"A",1)
   ChangeSelfSwitch("A",0)
   250(bytes(0x04,0x08,0x6f,0x3a,0x0c,0x52,0x50,0x47,0x3a,0x3a,0x53,0x45,0x08,0x3a,0x0a,0x40,0x6e,0x61,0x6d,0x65,0x49,0x22,0x0a,0x49,0x74,0x65,0x6d,0x31,0x06,0x3a,0x06,0x45,0x54,0x3a,0x0b,0x40,0x70,0x69,0x74,0x63,0x68,0x69,0x69,0x3a,0x0c,0x40,0x76,0x6f,0x6c,0x75,0x6d,0x65,0x69,0x55))
   ChangeInventoryArmor(1556,0,0,1,false)
   0()
  EndIf()
  ChangeSwitch(2119,2119,1)
  EndEventProcessing()
  0()



EVENT   24
 PAGE   1
  // condition: switch 623 is ON
  241(bytes(0x04,0x08,0x6f,0x3a,0x0d,0x52,0x50,0x47,0x3a,0x3a,0x42,0x47,0x4d,0x08,0x3a,0x0a,0x40,0x6e,0x61,0x6d,0x65,0x49,0x22,0x10,0x73,0x63,0x65,0x6e,0x65,0x5f,0x63,0x6f,0x6d,0x69,0x31,0x06,0x3a,0x06,0x45,0x54,0x3a,0x0c,0x40,0x76,0x6f,0x6c,0x75,0x6d,0x65,0x69,0x69,0x3a,0x0b,0x40,0x70,0x69,0x74,0x63,0x68,0x69,0x69))
  ShowMessageFace("sylph_fc1",7,0,2,1)
  ShowMessage("\\n<Sylph>We'll be doing manzai with Gnomeeey. ♪")
  ShowMessageFace("gnome_fc1",0,0,2,2)
  ShowMessage("\\n<Gnome>......")
  ShowMessageFace("sylph_fc1",7,0,2,3)
  ShowMessage("\\n<Sylph>I heard that they built a fence next doors!")
  ShowMessageFace("sylph_fc1",7,0,2,4)
  ShowMessage("\\n<Sylph>...Heee!")
  ShowMessageFace("gnome_fc1",0,0,2,5)
  ShowMessage("\\n<Gnome>......")
  ShowMessageFace("",0,0,2,6)
  ShowMessage("\\n<Audience>......")
  ShowMessageFace("sylph_fc1",7,0,2,7)
  ShowMessage("\\n<Sylph>I heard that they built a fence next doors!")
  ShowMessageFace("sylph_fc1",7,0,2,8)
  ShowMessage("\\n<Sylph>...So cooool!")
  ShowMessageFace("gnome_fc1",0,0,2,9)
  ShowMessage("\\n<Gnome>......")
  ShowMessageFace("",0,0,2,10)
  ShowMessage("\\n<Audience>......")
  ShowMessageFace("sylph_fc1",7,0,2,11)
  ShowMessage("\\n<Sylph>...Aren't you going to retort like usual?")
  ShowMessageFace("gnome_fc1",1,0,2,12)
  ShowMessage("\\n<Gnome>......")
  ShowMessageFace("sylph_fc1",7,0,2,13)
  ShowMessage("\\n<Sylph>Ah, the spotlight is too dazzling...")
  ShowMessageFace("gnome_fc1",1,0,2,14)
  ShowMessage("\\n<Gnome>......")
  ShowMessageFace("",0,0,2,15)
  ShowMessage("\\n<Audience>......")
  ShowMessageFace("",0,0,2,16)
  ShowMessage("Time idly passes...")
  Wait(30)
  221()
  242(1)
  Wait(60)
  211(1)
  281(1)
  TeleportPlayer(0,624,63,27,6,2)
  ChangeSwitch(2119,2119,0)
  222()
  ShowMessageFace("",0,0,2,17)
  ShowMessage("\\n<Manager>That was movingly tragic. Next time you're here, let me buy some of your jokes!")
  ShowMessageFace("sylph_fc1",7,0,2,18)
  ShowMessage("\\n<Sylph>Leave it to us!")
  If(2,"A",1)
   ChangeSelfSwitch("A",0)
   250(bytes(0x04,0x08,0x6f,0x3a,0x0c,0x52,0x50,0x47,0x3a,0x3a,0x53,0x45,0x08,0x3a,0x0a,0x40,0x6e,0x61,0x6d,0x65,0x49,0x22,0x0a,0x49,0x74,0x65,0x6d,0x31,0x06,0x3a,0x06,0x45,0x54,0x3a,0x0b,0x40,0x70,0x69,0x74,0x63,0x68,0x69,0x69,0x3a,0x0c,0x40,0x76,0x6f,0x6c,0x75,0x6d,0x65,0x69,0x55))
   ChangeInventoryArmor(1057,0,0,1,false)
   0()
  EndIf()
  ChangeSwitch(2119,2119,1)
  EndEventProcessing()
  0()



EVENT   25
 PAGE   1
  // condition: switch 624 is ON
  241(bytes(0x04,0x08,0x6f,0x3a,0x0d,0x52,0x50,0x47,0x3a,0x3a,0x42,0x47,0x4d,0x08,0x3a,0x0a,0x40,0x6e,0x61,0x6d,0x65,0x49,0x22,0x10,0x73,0x63,0x65,0x6e,0x65,0x5f,0x63,0x6f,0x6d,0x69,0x31,0x06,0x3a,0x06,0x45,0x54,0x3a,0x0c,0x40,0x76,0x6f,0x6c,0x75,0x6d,0x65,0x69,0x69,0x3a,0x0b,0x40,0x70,0x69,0x74,0x63,0x68,0x69,0x69))
  ShowMessageFace("gnome_fc1",0,0,2,1)
  ShowMessage("\\n<Gnome>......")
  ShowMessageFace("nuruko_fc1",0,0,2,2)
  ShowMessage("\\n<Nuruko>......")
  ShowMessageFace("",0,0,2,3)
  ShowMessage("\\n<Audience>......")
  ShowMessageFace("gnome_fc1",0,0,2,4)
  ShowMessage("\\n<Gnome>......")
  ShowMessageFace("nuruko_fc1",0,0,2,5)
  ShowMessage("\\n<Nuruko>......")
  ShowMessageFace("",0,0,2,6)
  ShowMessage("\\n<Audience>......")
  ShowMessageFace("gnome_fc1",1,0,2,7)
  ShowMessage("\\n<Gnome>......")
  ShowMessageFace("nuruko_fc1",2,0,2,8)
  ShowMessage("\\n<Nuruko>......")
  ShowMessageFace("",0,0,2,9)
  ShowMessage("\\n<Audience>......")
  ShowMessageFace("",0,0,2,10)
  ShowMessage("The stage falls silent...")
  Wait(30)
  221()
  242(1)
  Wait(60)
  211(1)
  281(1)
  TeleportPlayer(0,624,63,27,6,2)
  ChangeSwitch(2119,2119,0)
  222()
  ShowMessageFace("",0,0,2,11)
  ShowMessage("\\n<Manager>......")
  If(2,"A",1)
   ChangeSelfSwitch("A",0)
   250(bytes(0x04,0x08,0x6f,0x3a,0x0c,0x52,0x50,0x47,0x3a,0x3a,0x53,0x45,0x08,0x3a,0x0a,0x40,0x6e,0x61,0x6d,0x65,0x49,0x22,0x0a,0x49,0x74,0x65,0x6d,0x31,0x06,0x3a,0x06,0x45,0x54,0x3a,0x0b,0x40,0x70,0x69,0x74,0x63,0x68,0x69,0x69,0x3a,0x0c,0x40,0x76,0x6f,0x6c,0x75,0x6d,0x65,0x69,0x55))
   ChangeInventoryArmor(1553,0,0,1,false)
   0()
  EndIf()
  ChangeSwitch(2119,2119,1)
  EndEventProcessing()
  0()



EVENT   26
 PAGE   1
  // condition: switch 625 is ON
  241(bytes(0x04,0x08,0x6f,0x3a,0x0d,0x52,0x50,0x47,0x3a,0x3a,0x42,0x47,0x4d,0x08,0x3a,0x0a,0x40,0x6e,0x61,0x6d,0x65,0x49,0x22,0x0a,0x61,0x6d,0x69,0x72,0x61,0x06,0x3a,0x06,0x45,0x54,0x3a,0x0c,0x40,0x76,0x6f,0x6c,0x75,0x6d,0x65,0x69,0x69,0x3a,0x0b,0x40,0x70,0x69,0x74,0x63,0x68,0x69,0x69))
  ShowMessageFace("amira_fc1",0,0,2,1)
  ShowMessage("\\n<Amira>Amira's Worries Consultation Corneeer♪! A tiny vampire came today.")
  ShowMessageFace("vgirl_fc1",2,0,2,2)
  ShowMessage("\\n<Vanilla>Well, I'm worried about how flat I am... What should I do?")
  ShowMessageFace("amira_fc1",0,0,2,3)
  ShowMessage("\\n<Amira>So small...")
  ShowMessageFace("vgirl_fc1",4,0,2,4)
  ShowMessage("\\n<Vanilla>I-I know they're small!")
  ShowMessageFace("amira_fc1",0,0,2,5)
  ShowMessage("\\n<Amira>What's small is your mentality. This type of concern is silly.")
  ShowMessageFace("amira_fc1",0,0,2,6)
  ShowMessage("\\n<Amira>This is actually the happiness of those who have-not. You can live without the fear of loss.")
  ShowMessageFace("vgirl_fc1",2,0,2,7)
  ShowMessage("\\n<Vanilla>F-fear of loss...?")
  ShowMessageFace("amira_fc1",0,0,2,8)
  ShowMessage("\\n<Amira>Those who have are afraid of losing. Those who have-not don't have to fear loss.")
  ShowMessageFace("amira_fc1",0,0,2,9)
  ShowMessage("\\n<Amira>In other words, you have no need to fear. You didn't have any right from the start, so you don't have to worry about it.")
  ShowMessageFace("amira_fc1",0,0,2,10)
  ShowMessage("\\n<Amira>You are free. More free than those who have...")
  ShowMessageFace("vgirl_fc1",0,0,2,11)
  ShowMessage("\\n<Vanilla>I get it! I've been released from my fears!")
  ShowMessageFace("",0,0,2,12)
  ShowMessage("\\n<Audience>(She's been bamboozled...)")
  ShowMessageFace("vgirl_fc1",0,0,2,13)
  ShowMessage("\\n<Vanilla>I won't worry any more! If I have no breasts, I don't have to fear losing them!")
  ShowMessageFace("amira_fc1",0,0,2,14)
  ShowMessage("\\n<Amira>Eh? We were talking about breasts? Not about money?")
  ShowMessageFace("vgirl_fc1",0,0,2,15)
  ShowMessage("\\n<Vanilla>Huh?")
  ShowMessageFace("amira_fc1",0,0,2,16)
  ShowMessage("\\n<Amira>I was sure you were worried about being flat broke... Uhh, yeah... Breasts. Right...")
  ShowMessageFace("amira_fc1",0,0,2,17)
  ShowMessage("\\n<Amira>How about drinking milk?")
  ShowMessageFace("vgirl_fc1",5,0,2,18)
  ShowMessage("\\n<Vanilla>SAY WHAT?!")
  ShowMessageFace("amira_fc1",2,0,2,19)
  ShowMessage("\\n<Amira>This ends Amira's Worries Consultation Corner. Lost lambs, come unto me...")
  ShowMessageFace("",0,0,2,20)
  ShowMessage("\\n<Audience>(She's horrible...)")
  ShowMessageFace("",0,0,2,21)
  ShowMessage("The stage falls silent...")
  Wait(30)
  221()
  242(1)
  Wait(60)
  211(1)
  281(1)
  TeleportPlayer(0,624,63,27,6,2)
  ChangeSwitch(2119,2119,0)
  222()
  ShowMessageFace("vgirl_fc1",2,0,2,22)
  ShowMessage("\\n<Vanilla>......")
  ShowMessageFace("",0,0,2,23)
  ShowMessage("\\n<Manager>Well, don't get discouraged. You still have your whole life ahead of you.")
  If(2,"A",1)
   ChangeSelfSwitch("A",0)
   250(bytes(0x04,0x08,0x6f,0x3a,0x0c,0x52,0x50,0x47,0x3a,0x3a,0x53,0x45,0x08,0x3a,0x0a,0x40,0x6e,0x61,0x6d,0x65,0x49,0x22,0x0a,0x49,0x74,0x65,0x6d,0x31,0x06,0x3a,0x06,0x45,0x54,0x3a,0x0b,0x40,0x70,0x69,0x74,0x63,0x68,0x69,0x69,0x3a,0x0c,0x40,0x76,0x6f,0x6c,0x75,0x6d,0x65,0x69,0x55))
   ChangeInventory_Item(342,0,0,5)
   0()
  EndIf()
  ChangeSwitch(2119,2119,1)
  EndEventProcessing()
  0()



EVENT   27
 PAGE   1
  // condition: switch 626 is ON
  241(bytes(0x04,0x08,0x6f,0x3a,0x0d,0x52,0x50,0x47,0x3a,0x3a,0x42,0x47,0x4d,0x08,0x3a,0x0a,0x40,0x6e,0x61,0x6d,0x65,0x49,0x22,0x0b,0x73,0x74,0x61,0x67,0x65,0x31,0x06,0x3a,0x06,0x45,0x54,0x3a,0x0c,0x40,0x76,0x6f,0x6c,0x75,0x6d,0x65,0x69,0x69,0x3a,0x0b,0x40,0x70,0x69,0x74,0x63,0x68,0x69,0x69))
  ShowMessageFace("gob_fc1",5,0,2,1)
  ShowMessage("\\n<Gob>Play time!")
  ShowMessageFace("dragonp_fc1",3,0,2,2)
  ShowMessage("\\n<Papi>Let's all sing together!")
  ShowMessageFace("pramia_fc1",3,0,2,3)
  ShowMessage("\\n<Teeny>A flower on my head, chi-pa-pa. ♪")
  ShowMessageFace("vgirl_fc1",3,0,2,4)
  ShowMessage("\\n<Vanilla>Everyone play together, chi-pa-pa. ♪")
  ShowMessageFace("phoenix_fc1",1,0,2,5)
  ShowMessage("\\n<Mini>Crimson flames are...")
  ShowMessageFace("phoenix_fc1",5,0,2,6)
  ShowMessage("\\n<Mini>...I mixed up the songs...")
  ShowMessageFace("",0,0,2,7)
  ShowMessage("\\n<Youth>Do your best!")
  ShowMessageFace("",0,0,2,8)
  ShowMessage("\\n<Female Customer>So cute!")
  ShowMessageFace("",0,0,2,9)
  ShowMessage("The show was a great success!")
  Wait(30)
  221()
  242(1)
  Wait(60)
  211(1)
  281(1)
  TeleportPlayer(0,624,63,27,6,2)
  ChangeSwitch(2119,2119,0)
  222()
  ShowMessageFace("",0,0,2,10)
  ShowMessage("\\n<Manager>Aww, that was quite popular! Please come again!")
  If(2,"A",1)
   ChangeSelfSwitch("A",0)
   250(bytes(0x04,0x08,0x6f,0x3a,0x0c,0x52,0x50,0x47,0x3a,0x3a,0x53,0x45,0x08,0x3a,0x0a,0x40,0x6e,0x61,0x6d,0x65,0x49,0x22,0x0a,0x49,0x74,0x65,0x6d,0x31,0x06,0x3a,0x06,0x45,0x54,0x3a,0x0b,0x40,0x70,0x69,0x74,0x63,0x68,0x69,0x69,0x3a,0x0c,0x40,0x76,0x6f,0x6c,0x75,0x6d,0x65,0x69,0x55))
   ChangeInventory_Item(373,0,0,1)
   0()
  EndIf()
  ChangeSwitch(2119,2119,1)
  EndEventProcessing()
  0()



EVENT   28
 PAGE   1
  // condition: switch 627 is ON
  241(bytes(0x04,0x08,0x6f,0x3a,0x0d,0x52,0x50,0x47,0x3a,0x3a,0x42,0x47,0x4d,0x08,0x3a,0x0a,0x40,0x6e,0x61,0x6d,0x65,0x49,0x22,0x10,0x73,0x63,0x65,0x6e,0x65,0x5f,0x63,0x6f,0x6d,0x69,0x32,0x06,0x3a,0x06,0x45,0x54,0x3a,0x0c,0x40,0x76,0x6f,0x6c,0x75,0x6d,0x65,0x69,0x69,0x3a,0x0b,0x40,0x70,0x69,0x74,0x63,0x68,0x69,0x69))
  ShowMessageFace("lizardthief_fc1",0,0,2,1)
  ShowMessage("\\n<Liru>Anyone with confidence in their skill want to join the Scale Bandits?!")
  ShowMessageFace("lizardthief_fc2",0,0,2,2)
  ShowMessage("\\n<Len>The Scale Bandits do not require any special qualifications. However, it's better if you can hold your ground...")
  ShowMessageFace("lizardboss_fc1",0,0,2,3)
  ShowMessage("\\n<Miranda>Now come, you gutsy bastards! Follow me!")
  ShowMessageFace("",0,0,2,4)
  ShowMessage("\\n<Audience>(This is just a recruitment drive...)")
  ShowMessageFace("",0,0,2,5)
  ShowMessage("The theater is filled with a strange atmosphere...")
  Wait(30)
  221()
  242(1)
  Wait(60)
  211(1)
  281(1)
  TeleportPlayer(0,624,63,27,6,2)
  ChangeSwitch(2119,2119,0)
  222()
  ShowMessageFace("",0,0,2,6)
  ShowMessage("\\n<Manager>I hope you find some new members. But don't attack this town, okay...?")
  If(2,"A",1)
   ChangeSelfSwitch("A",0)
   250(bytes(0x04,0x08,0x6f,0x3a,0x0c,0x52,0x50,0x47,0x3a,0x3a,0x53,0x45,0x08,0x3a,0x0a,0x40,0x6e,0x61,0x6d,0x65,0x49,0x22,0x0a,0x49,0x74,0x65,0x6d,0x31,0x06,0x3a,0x06,0x45,0x54,0x3a,0x0b,0x40,0x70,0x69,0x74,0x63,0x68,0x69,0x69,0x3a,0x0c,0x40,0x76,0x6f,0x6c,0x75,0x6d,0x65,0x69,0x55))
   ChangeInventoryArmor(1700,0,0,1,false)
   0()
  EndIf()
  ChangeSwitch(2119,2119,1)
  EndEventProcessing()
  0()



EVENT   29
 PAGE   1
  // condition: switch 628 is ON
  241(bytes(0x04,0x08,0x6f,0x3a,0x0d,0x52,0x50,0x47,0x3a,0x3a,0x42,0x47,0x4d,0x08,0x3a,0x0a,0x40,0x6e,0x61,0x6d,0x65,0x49,0x22,0x0b,0x73,0x74,0x61,0x67,0x65,0x31,0x06,0x3a,0x06,0x45,0x54,0x3a,0x0c,0x40,0x76,0x6f,0x6c,0x75,0x6d,0x65,0x69,0x69,0x3a,0x0b,0x40,0x70,0x69,0x74,0x63,0x68,0x69,0x69))
  ShowMessageFace("syuree_fc1",1,0,2,1)
  ShowMessage("\\n<Sully>*washy-wash*♪")
  ShowMessageFace("minikani_fc1",0,0,2,2)
  ShowMessage("\\n<Amy>*soapy-soap*♪")
  ShowMessageFace("kani_fc1",1,0,2,3)
  ShowMessage("\\n<Soapy>*washy-washy-wash*♪")
  ShowMessageFace("",0,0,2,4)
  ShowMessage("\\n<Audience A>Woah, the stage is full of bubbles!")
  ShowMessageFace("",0,0,2,5)
  ShowMessage("\\n<Audience B>Heeey, they're flowing our way!")
  ShowMessageFace("",0,0,2,6)
  ShowMessage("\\n<Audience C>But these bubbles... They feel GREATTTT...♪")
  ShowMessageFace("",0,0,2,7)
  ShowMessage("The audience is immersed in ecstasy!")
  Wait(30)
  221()
  242(1)
  Wait(60)
  211(1)
  281(1)
  TeleportPlayer(0,624,63,27,6,2)
  ChangeSwitch(2119,2119,0)
  222()
  ShowMessageFace("",0,0,2,8)
  ShowMessage("\\n<Manager>Aheee... *washy-wash* feels so gooood...♪")
  If(2,"A",1)
   ChangeSelfSwitch("A",0)
   250(bytes(0x04,0x08,0x6f,0x3a,0x0c,0x52,0x50,0x47,0x3a,0x3a,0x53,0x45,0x08,0x3a,0x0a,0x40,0x6e,0x61,0x6d,0x65,0x49,0x22,0x0a,0x49,0x74,0x65,0x6d,0x31,0x06,0x3a,0x06,0x45,0x54,0x3a,0x0b,0x40,0x70,0x69,0x74,0x63,0x68,0x69,0x69,0x3a,0x0c,0x40,0x76,0x6f,0x6c,0x75,0x6d,0x65,0x69,0x55))
   ChangeInventoryArmor(1584,0,0,1,false)
   0()
  EndIf()
  ChangeSwitch(2119,2119,1)
  EndEventProcessing()
  0()



EVENT   30
 PAGE   1
  // condition: switch 629 is ON
  241(bytes(0x04,0x08,0x6f,0x3a,0x0d,0x52,0x50,0x47,0x3a,0x3a,0x42,0x47,0x4d,0x08,0x3a,0x0a,0x40,0x6e,0x61,0x6d,0x65,0x49,0x22,0x18,0x64,0x75,0x6e,0x67,0x65,0x6f,0x6e,0x5f,0x6f,0x62,0x61,0x6b,0x65,0x79,0x61,0x73,0x69,0x6b,0x69,0x06,0x3a,0x06,0x45,0x54,0x3a,0x0c,0x40,0x76,0x6f,0x6c,0x75,0x6d,0x65,0x69,0x69,0x3a,0x0b,0x40,0x70,0x69,0x74,0x63,0x68,0x69,0x69))
  ShowMessageFace("jack_fc1",1,0,2,1)
  ShowMessage("\\n<Pumpkin>It's Halloween! I'm a pumpkin!")
  ShowMessageFace("ghost_fc1",0,0,2,2)
  ShowMessage("\\n<Carrie>I'm a ghost...")
  ShowMessageFace("wormv_fc1",0,0,2,3)
  ShowMessage("\\n<Julia>I'm a witch, ufufufu...")
  ShowMessageFace("",0,0,2,4)
  ShowMessage("\\n<Audience A>They look quite real...")
  ShowMessageFace("jack_fc1",1,0,2,5)
  ShowMessage("\\n<Pumpkin>If you don't give us some candy, we'll pull a prank on you. ♪")
  ShowMessageFace("ghost_fc1",1,0,2,6)
  ShowMessage("\\n<Carrie>If you don't give us some candy, I'll curse you to death...")
  ShowMessageFace("wormv_fc1",1,0,2,7)
  ShowMessage("\\n<Julia>If you don't give us some candy, you'll be sucked dry...")
  ShowMessageFace("",0,0,2,8)
  ShowMessage("\\n<Audience B>Hiiihh, this is dangerous!")
  ShowMessageFace("",0,0,2,9)
  ShowMessage("The show is horrifying...")
  Wait(30)
  221()
  242(1)
  Wait(60)
  211(1)
  281(1)
  TeleportPlayer(0,624,63,27,6,2)
  ChangeSwitch(2119,2119,0)
  222()
  ShowMessageFace("",0,0,2,10)
  ShowMessage("\\n<Manager>We got unusually many gifts after this show...")
  ShowMessageFace("jack_fc1",1,0,2,11)
  ShowMessage("\\n<Pumpkin>Great harvest. ♪")
  If(2,"A",1)
   ChangeSelfSwitch("A",0)
   250(bytes(0x04,0x08,0x6f,0x3a,0x0c,0x52,0x50,0x47,0x3a,0x3a,0x53,0x45,0x08,0x3a,0x0a,0x40,0x6e,0x61,0x6d,0x65,0x49,0x22,0x0a,0x49,0x74,0x65,0x6d,0x31,0x06,0x3a,0x06,0x45,0x54,0x3a,0x0b,0x40,0x70,0x69,0x74,0x63,0x68,0x69,0x69,0x3a,0x0c,0x40,0x76,0x6f,0x6c,0x75,0x6d,0x65,0x69,0x55))
   ChangeInventory_Item(434,0,0,7)
   ChangeInventory_Item(435,0,0,10)
   ChangeInventory_Item(414,0,0,4)
   ChangeInventory_Item(415,0,0,2)
   ChangeInventory_Item(417,0,0,1)
   ChangeInventory_Item(421,0,0,1)
   ChangeInventory_Item(423,0,0,1)
   ChangeInventory_Item(444,0,0,1)
   ChangeInventory_Item(432,0,0,2)
   0()
  EndIf()
  ChangeSwitch(2119,2119,1)
  EndEventProcessing()
  0()



EVENT   31
 PAGE   1
  // condition: switch 630 is ON
  241(bytes(0x04,0x08,0x6f,0x3a,0x0d,0x52,0x50,0x47,0x3a,0x3a,0x42,0x47,0x4d,0x08,0x3a,0x0a,0x40,0x6e,0x61,0x6d,0x65,0x49,0x22,0x0b,0x73,0x74,0x61,0x67,0x65,0x33,0x06,0x3a,0x06,0x45,0x54,0x3a,0x0c,0x40,0x76,0x6f,0x6c,0x75,0x6d,0x65,0x69,0x69,0x3a,0x0b,0x40,0x70,0x69,0x74,0x63,0x68,0x69,0x69))
  ShowMessageFace("zonbe_fc3",0,0,2,1)
  ShowMessage("\\n<Zombie Girl>King of Zombies...")
  ShowMessageFace("zonbe_fc3",1,0,2,2)
  ShowMessage("\\n<Zombie Girl>Thrillleerrr...")
  ShowMessageFace("saki_fc1",3,0,2,3)
  ShowMessage("\\n<Saki>Oh yeah☆!")
  ShowMessageFace("",0,0,2,4)
  ShowMessage("\\n<Audience A>It's my first time seeing a dance like this!")
  ShowMessageFace("",0,0,2,5)
  ShowMessage("\\n<Audience B>Awesome! This is gonna be a thing!")
  ShowMessageFace("",0,0,2,6)
  ShowMessage("The show is a great success!")
  Wait(30)
  221()
  242(1)
  Wait(60)
  211(1)
  281(1)
  TeleportPlayer(0,624,63,27,6,2)
  ChangeSwitch(2119,2119,0)
  222()
  ShowMessageFace("",0,0,2,7)
  ShowMessage("\\n<Manager>As expected of you, Saki-chan. You've opened up new horizons! Please come again!")
  ShowMessageFace("saki_fc1",3,0,2,8)
  ShowMessage("\\n<Saki>Oh yeah☆!")
  If(2,"A",1)
   ChangeSelfSwitch("A",0)
   250(bytes(0x04,0x08,0x6f,0x3a,0x0c,0x52,0x50,0x47,0x3a,0x3a,0x53,0x45,0x08,0x3a,0x0a,0x40,0x6e,0x61,0x6d,0x65,0x49,0x22,0x0a,0x49,0x74,0x65,0x6d,0x31,0x06,0x3a,0x06,0x45,0x54,0x3a,0x0b,0x40,0x70,0x69,0x74,0x63,0x68,0x69,0x69,0x3a,0x0c,0x40,0x76,0x6f,0x6c,0x75,0x6d,0x65,0x69,0x55))
   125(0,0,3500)
   ShowMessageFace("",0,0,2,9)
   ShowMessage("You receive 3500G of payment.")
   0()
  EndIf()
  ChangeSwitch(2119,2119,1)
  EndEventProcessing()
  0()



EVENT   32
 PAGE   1
  // condition: switch 622 is ON
  0()
 PAGE   2
  // condition: switch 622 is ON
  // condition: switch 31 is ON
  0()



EVENT   33
 PAGE   1
  // condition: switch 622 is ON
  0()
 PAGE   2
  // condition: switch 626 is ON
  0()
 PAGE   3
  // condition: switch 630 is ON
  0()



EVENT   34
 PAGE   1
  // condition: switch 625 is ON
  0()



EVENT   35
 PAGE   1
  // condition: switch 623 is ON
  0()
 PAGE   2
  // condition: switch 624 is ON
  0()



EVENT   36
 PAGE   1
  // condition: switch 623 is ON
  0()
 PAGE   2
  // condition: switch 624 is ON
  0()
 PAGE   3
  // condition: switch 629 is ON
  0()



EVENT   37
 PAGE   1
  // condition: switch 625 is ON
  0()



EVENT   38
 PAGE   1
  // condition: switch 626 is ON
  0()



EVENT   39
 PAGE   1
  // condition: switch 626 is ON
  0()



EVENT   40
 PAGE   1
  // condition: switch 626 is ON
  0()



EVENT   41
 PAGE   1
  // condition: switch 626 is ON
  0()



EVENT   44
 PAGE   1
  // condition: switch 627 is ON
  0()
 PAGE   2
  // condition: switch 628 is ON
  0()
 PAGE   3
  // condition: switch 629 is ON
  0()



EVENT   45
 PAGE   1
  // condition: switch 627 is ON
  0()
 PAGE   2
  // condition: switch 628 is ON
  0()
 PAGE   3
  // condition: switch 629 is ON
  0()



EVENT   49
 PAGE   1
  // condition: switch 630 is ON
  0()



EVENT   50
 PAGE   1
  // condition: switch 630 is ON
  0()



EVENT   51
 PAGE   1
  // condition: switch 630 is ON
  0()

EVENT   53
 PAGE   1
  // condition: switch 630 is ON
  0()



EVENT   54
 PAGE   1
  // condition: switch 630 is ON
  0()



EVENT   55
 PAGE   1
  // condition: switch 630 is ON
  0()



EVENT   56
 PAGE   1
  // condition: switch 630 is ON
  0()



EVENT   57
 PAGE   1
  // condition: switch 630 is ON
  0()



EVENT   58
 PAGE   1
  // condition: switch 630 is ON
  0()


