
#==============================================================================
# ■ Item_Data
#------------------------------------------------------------------------------
# 　Item_Listで利用する、アイテムに付随するデータ群
#==============================================================================
class Item_Data
	attr_accessor :item_number, :favorite_flag, :item_object
	def initialize
		@item_number = 0
		@favorite_flag = false
		@item_object = nil
	end
end

#==============================================================================
# ■ Item_List
#------------------------------------------------------------------------------
# 　Game_Partyの全アイテムリスト用のクラス
#==============================================================================
class Item_List < Array
	def [](index)
		data = super
		return data if data
		self[index] = Item_Data.new
		super
	end
end

#Item_Listの変更に対応
class Game_Party < Game_Unit
	#--------------------------------------------------------------------------
	# ● セーブデータ互換
	#--------------------------------------------------------------------------
	def update
		@items = reset_item_list(@items) if @items.is_a?(Hash)
		@weapons = reset_item_list(@weapons) if @weapons.is_a?(Hash)
		@armors = reset_item_list(@armors) if @armors.is_a?(Hash)
		set_favorite_data unless @favorite_item.nil?
		
	end
	
	def reset_item_list(hash)
		hash.inject(Item_List.new){|array,(key,value)|
			array[key].item_number = value ; array
		}
	end
	
	def set_favorite_data
		@favorite_item[:item].map.with_index {|data,index| data ? index : nil}.compact.each{|index| @items[index].favorite_flag=true} if @favorite_item[:item]
		@favorite_item[:weapon].map.with_index {|data,index| data ? index : nil}.compact.each{|index| @weapons[index].favorite_flag=true} if @favorite_item[:weapon]
		@favorite_item[:armor].map.with_index {|data,index| data ? index : nil}.compact.each{|index| @armors[index].favorite_flag=true} if @favorite_item[:armor]
		@favorite_item =nil
	end
	

	#--------------------------------------------------------------------------
	# ○ 全アイテムリストの初期化
	#--------------------------------------------------------------------------
	def init_all_items
		@items = Item_List.new
		@weapons = Item_List.new
		@armors = Item_List.new
	end
	#--------------------------------------------------------------------------
	# ○ アイテムオブジェクトの配列取得 
	#--------------------------------------------------------------------------
	def items
		@items.map.with_index { |data,index| data.item_number > 0 ? index : nil if data }.compact.map{|id| $data_items[id]}
	end
	#--------------------------------------------------------------------------
	# ○ 武器オブジェクトの配列取得 
	#--------------------------------------------------------------------------
	def weapons
		@weapons.map.with_index { |data,index| data.item_number > 0 ? index : nil if data }.compact.map{|id| $data_weapons[id] }
	end
	#--------------------------------------------------------------------------
	# ○ 防具オブジェクトの配列取得 
	#--------------------------------------------------------------------------
	def armors
		@armors.map.with_index { |data,index| data.item_number > 0 ? index : nil if data }.compact.map{|id| $data_armors[id] }
	end
	
	#--------------------------------------------------------------------------
  #　○  アイテムの増加（減少）
  #     include_equip : 装備品も含める
  #--------------------------------------------------------------------------
  def nw_count_gain_item(item, amount, include_equip = false)
    container = item_container(item)
    return unless container
    last_number = item_number(item)
    new_number = last_number + amount
    container[item.id].item_number = [[new_number, 0].max, max_item_number(item)].min
    if include_equip && new_number < 0
      discard_members_equip(item, -new_number)
    end
    $game_map.need_refresh = true
  end
	
	#--------------------------------------------------------------------------
	# ○ アイテムのクラスに対応するコンテナオブジェクトを取得
	#--------------------------------------------------------------------------
	def item_container(item)
		return @items   if item.is_a?(RPG::Item)
		return @weapons if item.is_a?(RPG::Weapon)
		return @armors  if item.is_a?(RPG::Armor)
		return nil
	end
	
	#--------------------------------------------------------------------------
  # ○ アイテムの所持数取得
  #--------------------------------------------------------------------------
  def item_number(item)
    container = item_container(item)
    container ? container[item.index].item_number : 0   
  end
	#--------------------------------------------------------------------------
	# ○ アイテムのお気に入り状態を変更
	#--------------------------------------------------------------------------
	def set_favorite_item(item)
		return nil if item.nil?
		container = item_container(item)
		container[item.index].favorite_flag = !container[item.index].favorite_flag
	end
	
	#--------------------------------------------------------------------------
	# ○ お気に入りかどうか
	#--------------------------------------------------------------------------
	def favorite_item?(item)
		return nil if item.nil?
		container = item_container(item)
		return container[item.index].favorite_flag
	end
	
end